{
  "name": "tardis:village/observatory_plains",
  "fallback": "tardis:village/observatory_plains",
  "elements": [
    {
      "weight": 1,
      "element": {
        "location": "tardis:village/plains/houses/plains_observatory",
        "processors": "minecraft:mossify_10_percent",
        "projection": "rigid",
        "element_type": "minecraft:legacy_single_pool_element"
      }
    },
    {
      "weight": 1,
      "element": {
        "location": "minecraft:village/plains/houses/plains_big_house_1",
        "processors": "minecraft:mossify_10_percent",
        "projection": "rigid",
        "element_type": "minecraft:legacy_single_pool_element"
      }
    },
    {
      "weight": 1,
      "element": {
        "location": "minecraft:village/plains/houses/plains_medium_house_1",
        "processors": "minecraft:mossify_10_percent",
        "projection": "rigid",
        "element_type": "minecraft:legacy_single_pool_element"
      }
    }
  ]
}