[
  {
    "block": {"Properties":{"west":"true","up":"true","south":"true","north":"true","east":"true","down":"true"},"Name":"minecraft:brown_mushroom_block"},
    "x": 3,
    "y": 3,
    "z": 1
  },
  {
    "block": {"Properties":{"west":"true","up":"true","south":"true","north":"true","east":"true","down":"true"},"Name":"minecraft:brown_mushroom_block"},
    "x": 2,
    "y": 3,
    "z": 2
  },
  {
    "block": {"Properties":{"west":"true","up":"true","south":"true","north":"true","east":"true","down":"true"},"Name":"minecraft:brown_mushroom_block"},
    "x": 1,
    "y": 3,
    "z": 3
  },
  {
    "block": {"Properties":{"west":"true","up":"true","south":"true","north":"true","east":"true","down":"true"},"Name":"minecraft:brown_mushroom_block"},
    "x": 3,
    "y": 3,
    "z": 2
  },
  {
    "block": {"Properties":{"west":"true","up":"true","south":"true","north":"true","east":"true","down":"true"},"Name":"minecraft:brown_mushroom_block"},
    "x": 2,
    "y": 3,
    "z": 3
  },
  {
    "block": {"Properties":{"west":"true","up":"true","south":"true","north":"true","east":"true","down":"true"},"Name":"minecraft:brown_mushroom_block"},
    "x": 3,
    "y": 3,
    "z": -1
  },
  {
    "block": {"Properties":{"west":"true","up":"true","south":"true","north":"true","east":"true","down":"true"},"Name":"minecraft:mushroom_stem"},
    "x": 0,
    "y": 1,
    "z": 0
  },
  {
    "block": {"Properties":{"west":"true","up":"true","south":"true","north":"true","east":"true","down":"true"},"Name":"minecraft:brown_mushroom_block"},
    "x": 2,
    "y": 3,
    "z": 0
  },
  {
    "block": {"Properties":{"west":"true","up":"true","south":"true","north":"true","east":"true","down":"true"},"Name":"minecraft:brown_mushroom_block"},
    "x": 1,
    "y": 3,
    "z": 1
  },
  {
    "block": {"Properties":{"west":"true","up":"true","south":"true","north":"true","east":"true","down":"true"},"Name":"minecraft:brown_mushroom_block"},
    "x": 0,
    "y": 3,
    "z": 2
  },
  {
    "block": {"Properties":{"west":"true","up":"true","south":"true","north":"true","east":"true","down":"true"},"Name":"minecraft:brown_mushroom_block"},
    "x": -1,
    "y": 3,
    "z": 3
  },
  {
    "block": {"Properties":{"west":"true","up":"true","south":"true","north":"true","east":"true","down":"true"},"Name":"minecraft:brown_mushroom_block"},
    "x": 3,
    "y": 3,
    "z": 0
  },
  {
    "block": {"Properties":{"west":"true","up":"true","south":"true","north":"true","east":"true","down":"true"},"Name":"minecraft:brown_mushroom_block"},
    "x": 2,
    "y": 3,
    "z": 1
  },
  {
    "block": {"Properties":{"west":"true","up":"true","south":"true","north":"true","east":"true","down":"true"},"Name":"minecraft:brown_mushroom_block"},
    "x": 1,
    "y": 3,
    "z": 2
  },
  {
    "block": {"Properties":{"west":"true","up":"true","south":"true","north":"true","east":"true","down":"true"},"Name":"minecraft:brown_mushroom_block"},
    "x": 0,
    "y": 3,
    "z": 3
  },
  {
    "block": {"Properties":{"west":"true","up":"true","south":"true","north":"true","east":"true","down":"true"},"Name":"minecraft:brown_mushroom_block"},
    "x": 2,
    "y": 3,
    "z": -2
  },
  {
    "block": {"Properties":{"west":"true","up":"true","south":"true","north":"true","east":"true","down":"true"},"Name":"minecraft:brown_mushroom_block"},
    "x": 1,
    "y": 3,
    "z": -1
  },
  {
    "block": {"Properties":{"west":"true","up":"true","south":"true","north":"true","east":"true","down":"true"},"Name":"minecraft:brown_mushroom_block"},
    "x": 0,
    "y": 3,
    "z": 0
  },
  {
    "block": {"Properties":{"west":"true","up":"true","south":"true","north":"true","east":"true","down":"true"},"Name":"minecraft:brown_mushroom_block"},
    "x": -1,
    "y": 3,
    "z": 1
  },
  {
    "block": {"Properties":{"west":"true","up":"true","south":"true","north":"true","east":"true","down":"true"},"Name":"minecraft:brown_mushroom_block"},
    "x": -2,
    "y": 3,
    "z": 2
  },
  {
    "block": {"Properties":{"west":"true","up":"true","south":"true","north":"true","east":"true","down":"true"},"Name":"minecraft:brown_mushroom_block"},
    "x": 3,
    "y": 3,
    "z": -2
  },
  {
    "block": {"Properties":{"west":"true","up":"true","south":"true","north":"true","east":"true","down":"true"},"Name":"minecraft:brown_mushroom_block"},
    "x": 2,
    "y": 3,
    "z": -1
  },
  {
    "block": {"Properties":{"west":"true","up":"true","south":"true","north":"true","east":"true","down":"true"},"Name":"minecraft:brown_mushroom_block"},
    "x": 1,
    "y": 3,
    "z": 0
  },
  {
    "block": {"Properties":{"west":"true","up":"true","south":"true","north":"true","east":"true","down":"true"},"Name":"minecraft:brown_mushroom_block"},
    "x": 0,
    "y": 3,
    "z": 1
  },
  {
    "block": {"Properties":{"west":"true","up":"true","south":"true","north":"true","east":"true","down":"true"},"Name":"minecraft:brown_mushroom_block"},
    "x": -1,
    "y": 3,
    "z": 2
  },
  {
    "block": {"Properties":{"west":"true","up":"true","south":"true","north":"true","east":"true","down":"true"},"Name":"minecraft:brown_mushroom_block"},
    "x": -2,
    "y": 3,
    "z": 3
  },
  {
    "block": {"Properties":{"west":"true","up":"true","south":"true","north":"true","east":"true","down":"true"},"Name":"minecraft:brown_mushroom_block"},
    "x": 1,
    "y": 3,
    "z": -3
  },
  {
    "block": {"Properties":{"west":"true","up":"true","south":"true","north":"true","east":"true","down":"true"},"Name":"minecraft:brown_mushroom_block"},
    "x": 0,
    "y": 3,
    "z": -2
  },
  {
    "block": {"Properties":{"west":"true","up":"true","south":"true","north":"true","east":"true","down":"true"},"Name":"minecraft:brown_mushroom_block"},
    "x": -1,
    "y": 3,
    "z": -1
  },
  {
    "block": {"Properties":{"west":"true","up":"true","south":"true","north":"true","east":"true","down":"true"},"Name":"minecraft:brown_mushroom_block"},
    "x": -2,
    "y": 3,
    "z": 0
  },
  {
    "block": {"Properties":{"west":"true","up":"true","south":"true","north":"true","east":"true","down":"true"},"Name":"minecraft:brown_mushroom_block"},
    "x": -3,
    "y": 3,
    "z": 1
  },
  {
    "block": {"Properties":{"west":"true","up":"true","south":"true","north":"true","east":"true","down":"true"},"Name":"minecraft:brown_mushroom_block"},
    "x": 2,
    "y": 3,
    "z": -3
  },
  {
    "block": {"Properties":{"west":"true","up":"true","south":"true","north":"true","east":"true","down":"true"},"Name":"minecraft:brown_mushroom_block"},
    "x": 1,
    "y": 3,
    "z": -2
  },
  {
    "block": {"Properties":{"west":"true","up":"true","south":"true","north":"true","east":"true","down":"true"},"Name":"minecraft:brown_mushroom_block"},
    "x": 0,
    "y": 3,
    "z": -1
  },
  {
    "block": {"Properties":{"west":"true","up":"true","south":"true","north":"true","east":"true","down":"true"},"Name":"minecraft:brown_mushroom_block"},
    "x": -1,
    "y": 3,
    "z": 0
  },
  {
    "block": {"Properties":{"west":"true","up":"true","south":"true","north":"true","east":"true","down":"true"},"Name":"minecraft:brown_mushroom_block"},
    "x": -2,
    "y": 3,
    "z": 1
  },
  {
    "block": {"Properties":{"west":"true","up":"true","south":"true","north":"true","east":"true","down":"true"},"Name":"minecraft:brown_mushroom_block"},
    "x": -3,
    "y": 3,
    "z": 2
  },
  {
    "block": {"Properties":{"west":"true","up":"true","south":"true","north":"true","east":"true","down":"true"},"Name":"minecraft:brown_mushroom_block"},
    "x": -1,
    "y": 3,
    "z": -3
  },
  {
    "block": {"Properties":{"west":"true","up":"true","south":"true","north":"true","east":"true","down":"true"},"Name":"minecraft:brown_mushroom_block"},
    "x": -2,
    "y": 3,
    "z": -2
  },
  {
    "block": {"Properties":{"west":"true","up":"true","south":"true","north":"true","east":"true","down":"true"},"Name":"minecraft:brown_mushroom_block"},
    "x": -3,
    "y": 3,
    "z": -1
  },
  {
    "block": {"Properties":{"west":"true","up":"true","south":"true","north":"true","east":"true","down":"true"},"Name":"minecraft:brown_mushroom_block"},
    "x": 0,
    "y": 3,
    "z": -3
  },
  {
    "block": {"Properties":{"west":"true","up":"true","south":"true","north":"true","east":"true","down":"true"},"Name":"minecraft:brown_mushroom_block"},
    "x": -1,
    "y": 3,
    "z": -2
  },
  {
    "block": {"Properties":{"west":"true","up":"true","south":"true","north":"true","east":"true","down":"true"},"Name":"minecraft:brown_mushroom_block"},
    "x": -2,
    "y": 3,
    "z": -1
  },
  {
    "block": {"Properties":{"west":"true","up":"true","south":"true","north":"true","east":"true","down":"true"},"Name":"minecraft:brown_mushroom_block"},
    "x": -3,
    "y": 3,
    "z": 0
  },
  {
    "block": {"Properties":{"west":"true","up":"true","south":"true","north":"true","east":"true","down":"true"},"Name":"minecraft:brown_mushroom_block"},
    "x": -2,
    "y": 3,
    "z": -3
  },
  {
    "block": {"Properties":{"west":"true","up":"true","south":"true","north":"true","east":"true","down":"true"},"Name":"minecraft:brown_mushroom_block"},
    "x": -3,
    "y": 3,
    "z": -2
  },
  {
    "block": {"Properties":{"west":"true","up":"true","south":"true","north":"true","east":"true","down":"true"},"Name":"minecraft:mushroom_stem"},
    "x": 0,
    "y": 2,
    "z": 0
  }
]