[
  {
    "block": {
      "Name": "minecraft:nether_wart_block"
    },
    "x": -1,
    "y": 0,
    "z": -2
  },
  {
    "block": {
      "Properties": {
        "age": "25"
      },
      "Name": "minecraft:weeping_vines"
    },
    "x": 1,
    "y": 0,
    "z": -2
  },
  {
    "block": {
      "Name": "minecraft:nether_wart_block"
    },
    "x": -1,
    "y": 1,
    "z": -2
  },
  {
    "block": {
      "Name": "minecraft:weeping_vines_plant"
    },
    "x": 1,
    "y": 1,
    "z": -2
  },
  {
    "block": {
      "Name": "minecraft:nether_wart_block"
    },
    "x": 2,
    "y": 1,
    "z": -2
  },
  {
    "block": {
      "Name": "minecraft:nether_wart_block"
    },
    "x": -1,
    "y": 2,
    "z": -2
  },
  {
    "block": {
      "Name": "minecraft:weeping_vines_plant"
    },
    "x": 1,
    "y": 2,
    "z": -2
  },
  {
    "block": {
      "Name": "minecraft:nether_wart_block"
    },
    "x": 2,
    "y": 2,
    "z": -2
  },
  {
    "block": {
      "Name": "minecraft:nether_wart_block"
    },
    "x": -1,
    "y": 3,
    "z": -2
  },
  {
    "block": {
      "Name": "minecraft:nether_wart_block"
    },
    "x": 0,
    "y": 3,
    "z": -2
  },
  {
    "block": {
      "Name": "minecraft:nether_wart_block"
    },
    "x": 1,
    "y": 3,
    "z": -2
  },
  {
    "block": {
      "Name": "minecraft:nether_wart_block"
    },
    "x": 2,
    "y": 3,
    "z": -2
  },
  {
    "block": {
      "Name": "minecraft:nether_wart_block"
    },
    "x": -2,
    "y": 4,
    "z": -2
  },
  {
    "block": {
      "Name": "minecraft:nether_wart_block"
    },
    "x": -1,
    "y": 4,
    "z": -2
  },
  {
    "block": {
      "Name": "minecraft:nether_wart_block"
    },
    "x": 0,
    "y": 4,
    "z": -2
  },
  {
    "block": {
      "Name": "minecraft:nether_wart_block"
    },
    "x": 1,
    "y": 4,
    "z": -2
  },
  {
    "block": {
      "Name": "minecraft:nether_wart_block"
    },
    "x": 2,
    "y": 4,
    "z": -2
  },
  {
    "block": {
      "Name": "minecraft:nether_wart_block"
    },
    "x": -2,
    "y": 5,
    "z": -2
  },
  {
    "block": {
      "Name": "minecraft:nether_wart_block"
    },
    "x": -1,
    "y": 5,
    "z": -2
  },
  {
    "block": {
      "Name": "minecraft:nether_wart_block"
    },
    "x": 0,
    "y": 5,
    "z": -2
  },
  {
    "block": {
      "Name": "minecraft:nether_wart_block"
    },
    "x": 1,
    "y": 5,
    "z": -2
  },
  {
    "block": {
      "Name": "minecraft:nether_wart_block"
    },
    "x": 2,
    "y": 5,
    "z": -2
  },
  {
    "block": {
      "Name": "minecraft:nether_wart_block"
    },
    "x": -2,
    "y": 3,
    "z": -1
  },
  {
    "block": {
      "Name": "minecraft:shroomlight"
    },
    "x": -1,
    "y": 3,
    "z": -1
  },
  {
    "block": {
      "Name": "minecraft:nether_wart_block"
    },
    "x": 2,
    "y": 3,
    "z": -1
  },
  {
    "block": {
      "Name": "minecraft:nether_wart_block"
    },
    "x": -2,
    "y": 4,
    "z": -1
  },
  {
    "block": {
      "Name": "minecraft:nether_wart_block"
    },
    "x": 0,
    "y": 4,
    "z": -1
  },
  {
    "block": {
      "Name": "minecraft:shroomlight"
    },
    "x": 1,
    "y": 4,
    "z": -1
  },
  {
    "block": {
      "Name": "minecraft:nether_wart_block"
    },
    "x": 2,
    "y": 4,
    "z": -1
  },
  {
    "block": {
      "Name": "minecraft:nether_wart_block"
    },
    "x": -2,
    "y": 5,
    "z": -1
  },
  {
    "block": {
      "Name": "minecraft:nether_wart_block"
    },
    "x": 2,
    "y": 5,
    "z": -1
  },
  {
    "block": {
      "Name": "minecraft:nether_wart_block"
    },
    "x": -1,
    "y": 6,
    "z": -1
  },
  {
    "block": {
      "Name": "minecraft:nether_wart_block"
    },
    "x": 0,
    "y": 6,
    "z": -1
  },
  {
    "block": {
      "Name": "minecraft:nether_wart_block"
    },
    "x": 1,
    "y": 6,
    "z": -1
  },
  {
    "block": {
      "Name": "minecraft:nether_wart_block"
    },
    "x": -1,
    "y": 7,
    "z": -1
  },
  {
    "block": {
      "Name": "minecraft:nether_wart_block"
    },
    "x": 0,
    "y": 7,
    "z": -1
  },
  {
    "block": {
      "Name": "minecraft:nether_wart_block"
    },
    "x": 1,
    "y": 7,
    "z": -1
  },
  {
    "block": {
      "Name": "minecraft:nether_wart_block"
    },
    "x": 0,
    "y": 8,
    "z": -1
  },
  {
    "block": {
      "Name": "minecraft:nether_wart_block"
    },
    "x": 1,
    "y": 8,
    "z": -1
  },
  {
    "block": {
      "Properties": {
        "axis": "y"
      },
      "Name": "minecraft:crimson_stem"
    },
    "x": 0,
    "y": 1,
    "z": 0
  },
  {
    "block": {
      "Properties": {
        "axis": "y"
      },
      "Name": "minecraft:crimson_stem"
    },
    "x": 0,
    "y": 2,
    "z": 0
  },
  {
    "block": {
      "Name": "minecraft:nether_wart_block"
    },
    "x": -2,
    "y": 3,
    "z": 0
  },
  {
    "block": {
      "Name": "minecraft:nether_wart_block"
    },
    "x": -1,
    "y": 3,
    "z": 0
  },
  {
    "block": {
      "Properties": {
        "axis": "y"
      },
      "Name": "minecraft:crimson_stem"
    },
    "x": 0,
    "y": 3,
    "z": 0
  },
  {
    "block": {
      "Name": "minecraft:nether_wart_block"
    },
    "x": 2,
    "y": 3,
    "z": 0
  },
  {
    "block": {
      "Name": "minecraft:nether_wart_block"
    },
    "x": -2,
    "y": 4,
    "z": 0
  },
  {
    "block": {
      "Properties": {
        "axis": "y"
      },
      "Name": "minecraft:crimson_stem"
    },
    "x": 0,
    "y": 4,
    "z": 0
  },
  {
    "block": {
      "Name": "minecraft:nether_wart_block"
    },
    "x": 2,
    "y": 4,
    "z": 0
  },
  {
    "block": {
      "Name": "minecraft:nether_wart_block"
    },
    "x": -2,
    "y": 5,
    "z": 0
  },
  {
    "block": {
      "Properties": {
        "axis": "y"
      },
      "Name": "minecraft:crimson_stem"
    },
    "x": 0,
    "y": 5,
    "z": 0
  },
  {
    "block": {
      "Name": "minecraft:nether_wart_block"
    },
    "x": 2,
    "y": 5,
    "z": 0
  },
  {
    "block": {
      "Name": "minecraft:nether_wart_block"
    },
    "x": -1,
    "y": 6,
    "z": 0
  },
  {
    "block": {
      "Properties": {
        "axis": "y"
      },
      "Name": "minecraft:crimson_stem"
    },
    "x": 0,
    "y": 6,
    "z": 0
  },
  {
    "block": {
      "Name": "minecraft:nether_wart_block"
    },
    "x": 1,
    "y": 6,
    "z": 0
  },
  {
    "block": {
      "Name": "minecraft:nether_wart_block"
    },
    "x": -1,
    "y": 7,
    "z": 0
  },
  {
    "block": {
      "Properties": {
        "axis": "y"
      },
      "Name": "minecraft:crimson_stem"
    },
    "x": 0,
    "y": 7,
    "z": 0
  },
  {
    "block": {
      "Name": "minecraft:nether_wart_block"
    },
    "x": 1,
    "y": 7,
    "z": 0
  },
  {
    "block": {
      "Name": "minecraft:nether_wart_block"
    },
    "x": -1,
    "y": 8,
    "z": 0
  },
  {
    "block": {
      "Name": "minecraft:nether_wart_block"
    },
    "x": 0,
    "y": 8,
    "z": 0
  },
  {
    "block": {
      "Name": "minecraft:nether_wart_block"
    },
    "x": 1,
    "y": 8,
    "z": 0
  },
  {
    "block": {
      "Name": "minecraft:nether_wart_block"
    },
    "x": 2,
    "y": 0,
    "z": 1
  },
  {
    "block": {
      "Name": "minecraft:nether_wart_block"
    },
    "x": 2,
    "y": 1,
    "z": 1
  },
  {
    "block": {
      "Name": "minecraft:nether_wart_block"
    },
    "x": 2,
    "y": 2,
    "z": 1
  },
  {
    "block": {
      "Name": "minecraft:nether_wart_block"
    },
    "x": -2,
    "y": 3,
    "z": 1
  },
  {
    "block": {
      "Name": "minecraft:nether_wart_block"
    },
    "x": 2,
    "y": 3,
    "z": 1
  },
  {
    "block": {
      "Name": "minecraft:nether_wart_block"
    },
    "x": -2,
    "y": 4,
    "z": 1
  },
  {
    "block": {
      "Name": "minecraft:nether_wart_block"
    },
    "x": 2,
    "y": 4,
    "z": 1
  },
  {
    "block": {
      "Name": "minecraft:nether_wart_block"
    },
    "x": -2,
    "y": 5,
    "z": 1
  },
  {
    "block": {
      "Name": "minecraft:nether_wart_block"
    },
    "x": 2,
    "y": 5,
    "z": 1
  },
  {
    "block": {
      "Name": "minecraft:nether_wart_block"
    },
    "x": -1,
    "y": 6,
    "z": 1
  },
  {
    "block": {
      "Name": "minecraft:nether_wart_block"
    },
    "x": 0,
    "y": 6,
    "z": 1
  },
  {
    "block": {
      "Name": "minecraft:nether_wart_block"
    },
    "x": 1,
    "y": 6,
    "z": 1
  },
  {
    "block": {
      "Name": "minecraft:nether_wart_block"
    },
    "x": 0,
    "y": 7,
    "z": 1
  },
  {
    "block": {
      "Name": "minecraft:nether_wart_block"
    },
    "x": 1,
    "y": 7,
    "z": 1
  },
  {
    "block": {
      "Name": "minecraft:nether_wart_block"
    },
    "x": 0,
    "y": 8,
    "z": 1
  },
  {
    "block": {
      "Name": "minecraft:nether_wart_block"
    },
    "x": 1,
    "y": 8,
    "z": 1
  },
  {
    "block": {
      "Name": "minecraft:nether_wart_block"
    },
    "x": -2,
    "y": 2,
    "z": 2
  },
  {
    "block": {
      "Name": "minecraft:nether_wart_block"
    },
    "x": -1,
    "y": 3,
    "z": 2
  },
  {
    "block": {
      "Name": "minecraft:nether_wart_block"
    },
    "x": 0,
    "y": 3,
    "z": 2
  },
  {
    "block": {
      "Name": "minecraft:nether_wart_block"
    },
    "x": 1,
    "y": 3,
    "z": 2
  },
  {
    "block": {
      "Name": "minecraft:nether_wart_block"
    },
    "x": 2,
    "y": 3,
    "z": 2
  },
  {
    "block": {
      "Name": "minecraft:nether_wart_block"
    },
    "x": -2,
    "y": 4,
    "z": 2
  },
  {
    "block": {
      "Name": "minecraft:nether_wart_block"
    },
    "x": -1,
    "y": 4,
    "z": 2
  },
  {
    "block": {
      "Name": "minecraft:nether_wart_block"
    },
    "x": 0,
    "y": 4,
    "z": 2
  },
  {
    "block": {
      "Name": "minecraft:nether_wart_block"
    },
    "x": 1,
    "y": 4,
    "z": 2
  },
  {
    "block": {
      "Name": "minecraft:nether_wart_block"
    },
    "x": 2,
    "y": 4,
    "z": 2
  },
  {
    "block": {
      "Name": "minecraft:nether_wart_block"
    },
    "x": -1,
    "y": 5,
    "z": 2
  },
  {
    "block": {
      "Name": "minecraft:nether_wart_block"
    },
    "x": 0,
    "y": 5,
    "z": 2
  },
  {
    "block": {
      "Name": "minecraft:nether_wart_block"
    },
    "x": 1,
    "y": 5,
    "z": 2
  },
  {
    "block": {
      "Name": "minecraft:nether_wart_block"
    },
    "x": 2,
    "y": 5,
    "z": 2
  }
]