[
  {
    "block": {
      "Name": "minecraft:cut_sandstone"
    },
    "x": -4,
    "y": -1,
    "z": -2
  },
  {
    "block": {
      "Name": "minecraft:smooth_sandstone"
    },
    "x": -3,
    "y": -1,
    "z": -2
  },
  {
    "block": {
      "Name": "minecraft:smooth_sandstone"
    },
    "x": -2,
    "y": -1,
    "z": -2
  },
  {
    "block": {
      "Name": "minecraft:smooth_sandstone"
    },
    "x": -1,
    "y": -1,
    "z": -2
  },
  {
    "block": {
      "Name": "minecraft:smooth_sandstone"
    },
    "x": 0,
    "y": -1,
    "z": -2
  },
  {
    "block": {
      "Name": "minecraft:smooth_sandstone"
    },
    "x": 1,
    "y": -1,
    "z": -2
  },
  {
    "block": {
      "Name": "minecraft:smooth_sandstone"
    },
    "x": 2,
    "y": -1,
    "z": -2
  },
  {
    "block": {
      "Name": "minecraft:smooth_sandstone"
    },
    "x": 3,
    "y": -1,
    "z": -2
  },
  {
    "block": {
      "Name": "minecraft:cut_sandstone"
    },
    "x": 4,
    "y": -1,
    "z": -2
  },
  {
    "block": {
      "Name": "minecraft:cut_sandstone"
    },
    "x": -4,
    "y": 0,
    "z": -2
  },
  {
    "block": {
      "Name": "minecraft:smooth_sandstone"
    },
    "x": -3,
    "y": 0,
    "z": -2
  },
  {
    "block": {
      "Name": "minecraft:potted_cactus"
    },
    "x": -2,
    "y": 0,
    "z": -2
  },
  {
    "block": {
      "Name": "minecraft:smooth_sandstone"
    },
    "x": -1,
    "y": 0,
    "z": -2
  },
  {
    "block": {
      "Name": "minecraft:smooth_sandstone"
    },
    "x": 0,
    "y": 0,
    "z": -2
  },
  {
    "block": {
      "Name": "minecraft:smooth_sandstone"
    },
    "x": 1,
    "y": 0,
    "z": -2
  },
  {
    "block": {
      "Name": "minecraft:potted_cactus"
    },
    "x": 2,
    "y": 0,
    "z": -2
  },
  {
    "block": {
      "Name": "minecraft:smooth_sandstone"
    },
    "x": 3,
    "y": 0,
    "z": -2
  },
  {
    "block": {
      "Name": "minecraft:cut_sandstone"
    },
    "x": 4,
    "y": 0,
    "z": -2
  },
  {
    "block": {
      "Name": "minecraft:cut_sandstone"
    },
    "x": -4,
    "y": 1,
    "z": -2
  },
  {
    "block": {
      "Name": "minecraft:smooth_sandstone"
    },
    "x": -3,
    "y": 1,
    "z": -2
  },
  {
    "block": {
      "Properties": {
        "waterlogged": "false",
        "type": "top"
      },
      "Name": "minecraft:sandstone_slab"
    },
    "x": -2,
    "y": 1,
    "z": -2
  },
  {
    "block": {
      "Name": "minecraft:smooth_sandstone"
    },
    "x": -1,
    "y": 1,
    "z": -2
  },
  {
    "block": {
      "Name": "minecraft:smooth_sandstone"
    },
    "x": 0,
    "y": 1,
    "z": -2
  },
  {
    "block": {
      "Name": "minecraft:smooth_sandstone"
    },
    "x": 1,
    "y": 1,
    "z": -2
  },
  {
    "block": {
      "Properties": {
        "waterlogged": "false",
        "type": "top"
      },
      "Name": "minecraft:sandstone_slab"
    },
    "x": 2,
    "y": 1,
    "z": -2
  },
  {
    "block": {
      "Name": "minecraft:smooth_sandstone"
    },
    "x": 3,
    "y": 1,
    "z": -2
  },
  {
    "block": {
      "Name": "minecraft:cut_sandstone"
    },
    "x": 4,
    "y": 1,
    "z": -2
  },
  {
    "block": {
      "Name": "minecraft:cut_sandstone"
    },
    "x": -4,
    "y": 2,
    "z": -2
  },
  {
    "block": {
      "Name": "minecraft:smooth_sandstone"
    },
    "x": -3,
    "y": 2,
    "z": -2
  },
  {
    "block": {
      "Name": "minecraft:smooth_sandstone"
    },
    "x": -2,
    "y": 2,
    "z": -2
  },
  {
    "block": {
      "Name": "minecraft:smooth_sandstone"
    },
    "x": -1,
    "y": 2,
    "z": -2
  },
  {
    "block": {
      "Name": "minecraft:smooth_sandstone"
    },
    "x": 0,
    "y": 2,
    "z": -2
  },
  {
    "block": {
      "Name": "minecraft:smooth_sandstone"
    },
    "x": 1,
    "y": 2,
    "z": -2
  },
  {
    "block": {
      "Name": "minecraft:smooth_sandstone"
    },
    "x": 2,
    "y": 2,
    "z": -2
  },
  {
    "block": {
      "Name": "minecraft:smooth_sandstone"
    },
    "x": 3,
    "y": 2,
    "z": -2
  },
  {
    "block": {
      "Name": "minecraft:cut_sandstone"
    },
    "x": 4,
    "y": 2,
    "z": -2
  },
  {
    "block": {
      "Name": "minecraft:cut_sandstone"
    },
    "x": -4,
    "y": 3,
    "z": -2
  },
  {
    "block": {
      "Name": "minecraft:cut_sandstone"
    },
    "x": -3,
    "y": 3,
    "z": -2
  },
  {
    "block": {
      "Name": "minecraft:cut_sandstone"
    },
    "x": -2,
    "y": 3,
    "z": -2
  },
  {
    "block": {
      "Name": "minecraft:cut_sandstone"
    },
    "x": -1,
    "y": 3,
    "z": -2
  },
  {
    "block": {
      "Name": "minecraft:cut_sandstone"
    },
    "x": 0,
    "y": 3,
    "z": -2
  },
  {
    "block": {
      "Name": "minecraft:cut_sandstone"
    },
    "x": 1,
    "y": 3,
    "z": -2
  },
  {
    "block": {
      "Name": "minecraft:cut_sandstone"
    },
    "x": 2,
    "y": 3,
    "z": -2
  },
  {
    "block": {
      "Name": "minecraft:cut_sandstone"
    },
    "x": 3,
    "y": 3,
    "z": -2
  },
  {
    "block": {
      "Name": "minecraft:cut_sandstone"
    },
    "x": 4,
    "y": 3,
    "z": -2
  },
  {
    "block": {
      "Name": "minecraft:cut_sandstone"
    },
    "x": -4,
    "y": 4,
    "z": -2
  },
  {
    "block": {
      "Name": "minecraft:cut_sandstone"
    },
    "x": 4,
    "y": 4,
    "z": -2
  },
  {
    "block": {
      "Name": "minecraft:smooth_sandstone"
    },
    "x": -4,
    "y": -1,
    "z": -1
  },
  {
    "block": {
      "Name": "minecraft:bookshelf"
    },
    "x": -3,
    "y": -1,
    "z": -1
  },
  {
    "block": {
      "Properties": {
        "waterlogged": "false",
        "shape": "straight",
        "half": "bottom",
        "facing": "east"
      },
      "Name": "minecraft:smooth_sandstone_stairs"
    },
    "x": 3,
    "y": -1,
    "z": -1
  },
  {
    "block": {
      "Name": "minecraft:smooth_sandstone"
    },
    "x": 4,
    "y": -1,
    "z": -1
  },
  {
    "block": {
      "Name": "minecraft:smooth_sandstone"
    },
    "x": -4,
    "y": 0,
    "z": -1
  },
  {
    "block": {
      "Name": "minecraft:bookshelf"
    },
    "x": -3,
    "y": 0,
    "z": -1
  },
  {
    "block": {
      "Properties": {
        "facing": "south"
      },
      "Name": "minecraft:wall_torch"
    },
    "x": 0,
    "y": 0,
    "z": -1
  },
  {
    "block": {
      "Name": "minecraft:smooth_sandstone"
    },
    "x": 4,
    "y": 0,
    "z": -1
  },
  {
    "block": {
      "Name": "minecraft:smooth_sandstone"
    },
    "x": -4,
    "y": 1,
    "z": -1
  },
  {
    "block": {
      "Name": "minecraft:bookshelf"
    },
    "x": -3,
    "y": 1,
    "z": -1
  },
  {
    "block": {
      "Name": "minecraft:smooth_sandstone"
    },
    "x": 4,
    "y": 1,
    "z": -1
  },
  {
    "block": {
      "Name": "minecraft:smooth_sandstone"
    },
    "x": -4,
    "y": 2,
    "z": -1
  },
  {
    "block": {
      "Name": "minecraft:smooth_sandstone"
    },
    "x": -3,
    "y": 2,
    "z": -1
  },
  {
    "block": {
      "Name": "minecraft:smooth_sandstone"
    },
    "x": -2,
    "y": 2,
    "z": -1
  },
  {
    "block": {
      "Name": "minecraft:smooth_sandstone"
    },
    "x": -1,
    "y": 2,
    "z": -1
  },
  {
    "block": {
      "Name": "minecraft:smooth_sandstone"
    },
    "x": 0,
    "y": 2,
    "z": -1
  },
  {
    "block": {
      "Name": "minecraft:smooth_sandstone"
    },
    "x": 1,
    "y": 2,
    "z": -1
  },
  {
    "block": {
      "Name": "minecraft:smooth_sandstone"
    },
    "x": 2,
    "y": 2,
    "z": -1
  },
  {
    "block": {
      "Name": "minecraft:smooth_sandstone"
    },
    "x": 3,
    "y": 2,
    "z": -1
  },
  {
    "block": {
      "Name": "minecraft:smooth_sandstone"
    },
    "x": 4,
    "y": 2,
    "z": -1
  },
  {
    "block": {
      "Name": "minecraft:cut_sandstone"
    },
    "x": -4,
    "y": 3,
    "z": -1
  },
  {
    "block": {
      "Name": "minecraft:cut_sandstone"
    },
    "x": 4,
    "y": 3,
    "z": -1
  },
  {
    "block": {
      "Name": "minecraft:smooth_sandstone"
    },
    "x": -4,
    "y": -1,
    "z": 0
  },
  {
    "block": {
      "Name": "minecraft:bookshelf"
    },
    "x": -3,
    "y": -1,
    "z": 0
  },
  {
    "block": {
      "Name": "minecraft:white_carpet"
    },
    "x": -1,
    "y": -1,
    "z": 0
  },
  {
    "block": {
      "Name": "minecraft:white_carpet"
    },
    "x": 1,
    "y": -1,
    "z": 0
  },
  {
    "block": {
      "Properties": {
        "powered": "false",
        "has_book": "false",
        "facing": "west"
      },
      "Name": "minecraft:lectern"
    },
    "x": 3,
    "y": -1,
    "z": 0
  },
  {
    "block": {
      "Name": "minecraft:smooth_sandstone"
    },
    "x": 4,
    "y": -1,
    "z": 0
  },
  {
    "block": {
      "Name": "minecraft:smooth_sandstone"
    },
    "x": -4,
    "y": 0,
    "z": 0
  },
  {
    "block": {
      "Name": "minecraft:bookshelf"
    },
    "x": -3,
    "y": 0,
    "z": 0
  },
  {
    "block": {
      "Properties": {
        "facing": "west"
      },
      "Name": "minecraft:wall_torch"
    },
    "x": 3,
    "y": 0,
    "z": 0
  },
  {
    "block": {
      "Name": "minecraft:smooth_sandstone"
    },
    "x": 4,
    "y": 0,
    "z": 0
  },
  {
    "block": {
      "Name": "minecraft:smooth_sandstone"
    },
    "x": -4,
    "y": 1,
    "z": 0
  },
  {
    "block": {
      "Name": "minecraft:bookshelf"
    },
    "x": -3,
    "y": 1,
    "z": 0
  },
  {
    "block": {
      "Name": "minecraft:smooth_sandstone"
    },
    "x": 4,
    "y": 1,
    "z": 0
  },
  {
    "block": {
      "Name": "minecraft:smooth_sandstone"
    },
    "x": -4,
    "y": 2,
    "z": 0
  },
  {
    "block": {
      "Name": "minecraft:smooth_sandstone"
    },
    "x": -3,
    "y": 2,
    "z": 0
  },
  {
    "block": {
      "Name": "minecraft:smooth_sandstone"
    },
    "x": -2,
    "y": 2,
    "z": 0
  },
  {
    "block": {
      "Name": "minecraft:smooth_sandstone"
    },
    "x": -1,
    "y": 2,
    "z": 0
  },
  {
    "block": {
      "Name": "minecraft:smooth_sandstone"
    },
    "x": 0,
    "y": 2,
    "z": 0
  },
  {
    "block": {
      "Name": "minecraft:smooth_sandstone"
    },
    "x": 1,
    "y": 2,
    "z": 0
  },
  {
    "block": {
      "Name": "minecraft:smooth_sandstone"
    },
    "x": 2,
    "y": 2,
    "z": 0
  },
  {
    "block": {
      "Name": "minecraft:smooth_sandstone"
    },
    "x": 3,
    "y": 2,
    "z": 0
  },
  {
    "block": {
      "Name": "minecraft:smooth_sandstone"
    },
    "x": 4,
    "y": 2,
    "z": 0
  },
  {
    "block": {
      "Name": "minecraft:cut_sandstone"
    },
    "x": -4,
    "y": 3,
    "z": 0
  },
  {
    "block": {
      "Name": "minecraft:cut_sandstone"
    },
    "x": 4,
    "y": 3,
    "z": 0
  },
  {
    "block": {
      "Name": "minecraft:smooth_sandstone"
    },
    "x": -4,
    "y": -1,
    "z": 1
  },
  {
    "block": {
      "Name": "minecraft:bookshelf"
    },
    "x": -3,
    "y": -1,
    "z": 1
  },
  {
    "block": {
      "Properties": {
        "waterlogged": "false",
        "shape": "straight",
        "half": "bottom",
        "facing": "east"
      },
      "Name": "minecraft:smooth_sandstone_stairs"
    },
    "x": 3,
    "y": -1,
    "z": 1
  },
  {
    "block": {
      "Name": "minecraft:smooth_sandstone"
    },
    "x": 4,
    "y": -1,
    "z": 1
  },
  {
    "block": {
      "Name": "minecraft:smooth_sandstone"
    },
    "x": -4,
    "y": 0,
    "z": 1
  },
  {
    "block": {
      "Name": "minecraft:bookshelf"
    },
    "x": -3,
    "y": 0,
    "z": 1
  },
  {
    "block": {
      "Name": "minecraft:smooth_sandstone"
    },
    "x": 4,
    "y": 0,
    "z": 1
  },
  {
    "block": {
      "Name": "minecraft:smooth_sandstone"
    },
    "x": -4,
    "y": 1,
    "z": 1
  },
  {
    "block": {
      "Name": "minecraft:bookshelf"
    },
    "x": -3,
    "y": 1,
    "z": 1
  },
  {
    "block": {
      "Name": "minecraft:smooth_sandstone"
    },
    "x": 4,
    "y": 1,
    "z": 1
  },
  {
    "block": {
      "Name": "minecraft:smooth_sandstone"
    },
    "x": -4,
    "y": 2,
    "z": 1
  },
  {
    "block": {
      "Name": "minecraft:smooth_sandstone"
    },
    "x": -3,
    "y": 2,
    "z": 1
  },
  {
    "block": {
      "Name": "minecraft:smooth_sandstone"
    },
    "x": -2,
    "y": 2,
    "z": 1
  },
  {
    "block": {
      "Name": "minecraft:smooth_sandstone"
    },
    "x": -1,
    "y": 2,
    "z": 1
  },
  {
    "block": {
      "Name": "minecraft:smooth_sandstone"
    },
    "x": 0,
    "y": 2,
    "z": 1
  },
  {
    "block": {
      "Name": "minecraft:smooth_sandstone"
    },
    "x": 1,
    "y": 2,
    "z": 1
  },
  {
    "block": {
      "Name": "minecraft:smooth_sandstone"
    },
    "x": 2,
    "y": 2,
    "z": 1
  },
  {
    "block": {
      "Name": "minecraft:smooth_sandstone"
    },
    "x": 3,
    "y": 2,
    "z": 1
  },
  {
    "block": {
      "Name": "minecraft:smooth_sandstone"
    },
    "x": 4,
    "y": 2,
    "z": 1
  },
  {
    "block": {
      "Name": "minecraft:cut_sandstone"
    },
    "x": -4,
    "y": 3,
    "z": 1
  },
  {
    "block": {
      "Name": "minecraft:cut_sandstone"
    },
    "x": 4,
    "y": 3,
    "z": 1
  },
  {
    "block": {
      "Name": "minecraft:cut_sandstone"
    },
    "x": -4,
    "y": -1,
    "z": 2
  },
  {
    "block": {
      "Name": "minecraft:smooth_sandstone"
    },
    "x": -3,
    "y": -1,
    "z": 2
  },
  {
    "block": {
      "Name": "minecraft:smooth_sandstone"
    },
    "x": -2,
    "y": -1,
    "z": 2
  },
  {
    "block": {
      "Name": "minecraft:smooth_sandstone"
    },
    "x": -1,
    "y": -1,
    "z": 2
  },
  {
    "block": {
      "Properties": {
        "powered": "false",
        "open": "false",
        "hinge": "left",
        "half": "lower",
        "facing": "south"
      },
      "Name": "minecraft:jungle_door"
    },
    "x": 0,
    "y": -1,
    "z": 2
  },
  {
    "block": {
      "Name": "minecraft:smooth_sandstone"
    },
    "x": 1,
    "y": -1,
    "z": 2
  },
  {
    "block": {
      "Name": "minecraft:smooth_sandstone"
    },
    "x": 2,
    "y": -1,
    "z": 2
  },
  {
    "block": {
      "Name": "minecraft:smooth_sandstone"
    },
    "x": 3,
    "y": -1,
    "z": 2
  },
  {
    "block": {
      "Name": "minecraft:cut_sandstone"
    },
    "x": 4,
    "y": -1,
    "z": 2
  },
  {
    "block": {
      "Name": "minecraft:cut_sandstone"
    },
    "x": -4,
    "y": 0,
    "z": 2
  },
  {
    "block": {
      "Name": "minecraft:smooth_sandstone"
    },
    "x": -3,
    "y": 0,
    "z": 2
  },
  {
    "block": {
      "Name": "minecraft:potted_cactus"
    },
    "x": -2,
    "y": 0,
    "z": 2
  },
  {
    "block": {
      "Name": "minecraft:smooth_sandstone"
    },
    "x": -1,
    "y": 0,
    "z": 2
  },
  {
    "block": {
      "Properties": {
        "powered": "false",
        "open": "false",
        "hinge": "left",
        "half": "upper",
        "facing": "south"
      },
      "Name": "minecraft:jungle_door"
    },
    "x": 0,
    "y": 0,
    "z": 2
  },
  {
    "block": {
      "Name": "minecraft:smooth_sandstone"
    },
    "x": 1,
    "y": 0,
    "z": 2
  },
  {
    "block": {
      "Name": "minecraft:potted_cactus"
    },
    "x": 2,
    "y": 0,
    "z": 2
  },
  {
    "block": {
      "Name": "minecraft:smooth_sandstone"
    },
    "x": 3,
    "y": 0,
    "z": 2
  },
  {
    "block": {
      "Name": "minecraft:cut_sandstone"
    },
    "x": 4,
    "y": 0,
    "z": 2
  },
  {
    "block": {
      "Name": "minecraft:cut_sandstone"
    },
    "x": -4,
    "y": 1,
    "z": 2
  },
  {
    "block": {
      "Name": "minecraft:smooth_sandstone"
    },
    "x": -3,
    "y": 1,
    "z": 2
  },
  {
    "block": {
      "Properties": {
        "waterlogged": "false",
        "type": "top"
      },
      "Name": "minecraft:sandstone_slab"
    },
    "x": -2,
    "y": 1,
    "z": 2
  },
  {
    "block": {
      "Name": "minecraft:smooth_sandstone"
    },
    "x": -1,
    "y": 1,
    "z": 2
  },
  {
    "block": {
      "Properties": {
        "waterlogged": "false",
        "type": "double"
      },
      "Name": "minecraft:sandstone_slab"
    },
    "x": 0,
    "y": 1,
    "z": 2
  },
  {
    "block": {
      "Name": "minecraft:smooth_sandstone"
    },
    "x": 1,
    "y": 1,
    "z": 2
  },
  {
    "block": {
      "Properties": {
        "waterlogged": "false",
        "type": "top"
      },
      "Name": "minecraft:sandstone_slab"
    },
    "x": 2,
    "y": 1,
    "z": 2
  },
  {
    "block": {
      "Name": "minecraft:smooth_sandstone"
    },
    "x": 3,
    "y": 1,
    "z": 2
  },
  {
    "block": {
      "Name": "minecraft:cut_sandstone"
    },
    "x": 4,
    "y": 1,
    "z": 2
  },
  {
    "block": {
      "Name": "minecraft:cut_sandstone"
    },
    "x": -4,
    "y": 2,
    "z": 2
  },
  {
    "block": {
      "Name": "minecraft:smooth_sandstone"
    },
    "x": -3,
    "y": 2,
    "z": 2
  },
  {
    "block": {
      "Name": "minecraft:smooth_sandstone"
    },
    "x": -2,
    "y": 2,
    "z": 2
  },
  {
    "block": {
      "Name": "minecraft:smooth_sandstone"
    },
    "x": -1,
    "y": 2,
    "z": 2
  },
  {
    "block": {
      "Name": "minecraft:smooth_sandstone"
    },
    "x": 0,
    "y": 2,
    "z": 2
  },
  {
    "block": {
      "Name": "minecraft:smooth_sandstone"
    },
    "x": 1,
    "y": 2,
    "z": 2
  },
  {
    "block": {
      "Name": "minecraft:smooth_sandstone"
    },
    "x": 2,
    "y": 2,
    "z": 2
  },
  {
    "block": {
      "Name": "minecraft:smooth_sandstone"
    },
    "x": 3,
    "y": 2,
    "z": 2
  },
  {
    "block": {
      "Name": "minecraft:cut_sandstone"
    },
    "x": 4,
    "y": 2,
    "z": 2
  },
  {
    "block": {
      "Name": "minecraft:cut_sandstone"
    },
    "x": -4,
    "y": 3,
    "z": 2
  },
  {
    "block": {
      "Name": "minecraft:cut_sandstone"
    },
    "x": -3,
    "y": 3,
    "z": 2
  },
  {
    "block": {
      "Name": "minecraft:cut_sandstone"
    },
    "x": -2,
    "y": 3,
    "z": 2
  },
  {
    "block": {
      "Name": "minecraft:cut_sandstone"
    },
    "x": -1,
    "y": 3,
    "z": 2
  },
  {
    "block": {
      "Name": "minecraft:cut_sandstone"
    },
    "x": 0,
    "y": 3,
    "z": 2
  },
  {
    "block": {
      "Name": "minecraft:cut_sandstone"
    },
    "x": 1,
    "y": 3,
    "z": 2
  },
  {
    "block": {
      "Name": "minecraft:cut_sandstone"
    },
    "x": 2,
    "y": 3,
    "z": 2
  },
  {
    "block": {
      "Name": "minecraft:cut_sandstone"
    },
    "x": 3,
    "y": 3,
    "z": 2
  },
  {
    "block": {
      "Name": "minecraft:cut_sandstone"
    },
    "x": 4,
    "y": 3,
    "z": 2
  },
  {
    "block": {
      "Name": "minecraft:cut_sandstone"
    },
    "x": -4,
    "y": 4,
    "z": 2
  },
  {
    "block": {
      "Name": "minecraft:cut_sandstone"
    },
    "x": 4,
    "y": 4,
    "z": 2
  }
]