{
    "parent": "block/stairs",
    "textures": {
        "bottom": "tardis:block/technology/tech_floor_plate",
        "top": "tardis:block/technology/tech_floor_plate",
        "side": "tardis:block/technology/tech_floor_plate"
    }
}
