{
	"credit": "Made with Blockbench",
	"textures": {
		"0": "tardis:block/xion_crystal",
		"particle": "tardis:block/xion_crystal"
	},
	"elements": [
		{
			"from": [6, -2.66421, 7.34315],
			"to": [10, 1.33579, 11.34315],
			"rotation": {"angle": 22.5, "axis": "y", "origin": [6, -0.66421, 7.34315]},
			"faces": {
				"north": {"uv": [5, 5, 9, 9], "texture": "#0"},
				"east": {"uv": [5, 5, 9, 9], "texture": "#0"},
				"south": {"uv": [5, 5, 9, 9], "texture": "#0"},
				"west": {"uv": [5, 5, 9, 9], "texture": "#0"},
				"up": {"uv": [5, 5, 9, 9], "texture": "#0"},
				"down": {"uv": [5, 5, 9, 9], "texture": "#0"}
			}
		},
		{
			"from": [4, -1.66421, 6.34315],
			"to": [6, 5.33579, 8.34315],
			"rotation": {"angle": 22.5, "axis": "z", "origin": [4, 2.33579, 6.34315]},
			"faces": {
				"north": {"uv": [4, 4, 6, 11], "texture": "#0"},
				"east": {"uv": [7, 4, 9, 11], "texture": "#0"},
				"south": {"uv": [4, 4, 6, 11], "texture": "#0"},
				"west": {"uv": [10, 5, 12, 12], "texture": "#0"},
				"up": {"uv": [5, 5, 7, 7], "texture": "#0"},
				"down": {"uv": [5, 5, 7, 7], "texture": "#0"}
			}
		},
		{
			"from": [11, -2.66421, 9.34315],
			"to": [13, 4.33579, 11.34315],
			"rotation": {"angle": -45, "axis": "z", "origin": [11, 1.33579, 9.34315]},
			"faces": {
				"north": {"uv": [4, 4, 6, 11], "texture": "#0"},
				"east": {"uv": [7, 4, 9, 11], "texture": "#0"},
				"south": {"uv": [4, 4, 6, 11], "texture": "#0"},
				"west": {"uv": [10, 5, 12, 12], "texture": "#0"},
				"up": {"uv": [5, 5, 7, 7], "texture": "#0"},
				"down": {"uv": [5, 5, 7, 7], "texture": "#0"}
			}
		},
		{
			"from": [7, -1.66421, 3.34315],
			"to": [9, 5.33579, 5.34315],
			"rotation": {"angle": -22.5, "axis": "z", "origin": [7, 2.33579, 3.34315]},
			"faces": {
				"north": {"uv": [4, 4, 6, 11], "texture": "#0"},
				"east": {"uv": [7, 4, 9, 11], "texture": "#0"},
				"south": {"uv": [4, 4, 6, 11], "texture": "#0"},
				"west": {"uv": [10, 5, 12, 12], "texture": "#0"},
				"up": {"uv": [5, 5, 7, 7], "texture": "#0"},
				"down": {"uv": [5, 5, 7, 7], "texture": "#0"}
			}
		}
	],
	"groups": [
		{
			"name": "Xion C",
			"origin": [8, -8, 8],
			"children": [0, 1, 2, 3]
		}
	]
}