{
	"variants":{
		"facing=north":{
			"model":"tardis:block/plaque",
			"y":0
		},
		"facing=east":{
			"model":"tardis:block/plaque",
			"y":90
		},
		"facing=south":{
			"model":"tardis:block/plaque",
			"y":180
		},
		"facing=west":{
			"model":"tardis:block/plaque",
			"y":270
		}
	}
}