{
	"credit": "Made with Blockbench",
	"textures": {
		"0": "tardis:block/clutter_paper",
		"particle": "tardis:block/clutter_paper"
	},
	"elements": [
		{
			"from": [12.37283, 0.05346, 1.16471],
			"to": [19.75283, 0.05346, 6.08471],
			"rotation": {"angle": 22.5, "axis": "y", "origin": [22.83283, 0.05346, 21.23471]},
			"faces": {
				"north": {"uv": [0, 0, 6, 1], "texture": "#0"},
				"east": {"uv": [0, 0, 4, 1], "texture": "#0"},
				"south": {"uv": [0, 0, 6, 1], "texture": "#0"},
				"west": {"uv": [0, 0, 4, 1], "texture": "#0"},
				"up": {"uv": [9, 0, 16, 10], "rotation": 90, "texture": "#0"},
				"down": {"uv": [9, 0, 16, 10], "rotation": 270, "texture": "#0"}
			}
		},
		{
			"from": [12.16, 0.0615, -2.68],
			"to": [17.08, 0.0615, 4.7],
			"rotation": {"angle": -22.5, "axis": "y", "origin": [-4.84, 0, -10.99]},
			"faces": {
				"north": {"uv": [0, 0, 4, 1], "texture": "#0"},
				"east": {"uv": [0, 0, 6, 1], "texture": "#0"},
				"south": {"uv": [0, 0, 4, 1], "texture": "#0"},
				"west": {"uv": [0, 0, 6, 1], "texture": "#0"},
				"up": {"uv": [0, 0, 7, 10], "texture": "#0"},
				"down": {"uv": [0, 0, 7, 10], "texture": "#0"}
			}
		},
		{
			"from": [10.31283, 0.05346, -0.05529],
			"to": [17.69283, 0.05346, 4.86471],
			"rotation": {"angle": 22.5, "axis": "y", "origin": [22.83283, 0.05346, 21.23471]},
			"faces": {
				"north": {"uv": [0, 0, 6, 1], "texture": "#0"},
				"east": {"uv": [0, 0, 4, 1], "texture": "#0"},
				"south": {"uv": [0, 0, 6, 1], "texture": "#0"},
				"west": {"uv": [0, 0, 4, 1], "texture": "#0"},
				"up": {"uv": [9, 0, 16, 10], "rotation": 90, "texture": "#0"},
				"down": {"uv": [9, 0, 16, 10], "rotation": 270, "texture": "#0"}
			}
		},
		{
			"from": [7.4972, 0.04266, -0.7949],
			"to": [14.8772, 0.04266, 4.1251],
			"rotation": {"angle": -22.5, "axis": "y", "origin": [-6.9628, 0.04266, -2.3349]},
			"faces": {
				"north": {"uv": [0, 0, 6, 1], "texture": "#0"},
				"east": {"uv": [0, 0, 4, 1], "texture": "#0"},
				"south": {"uv": [0, 0, 6, 1], "texture": "#0"},
				"west": {"uv": [0, 0, 4, 1], "texture": "#0"},
				"up": {"uv": [9, 0, 16, 10], "rotation": 90, "texture": "#0"},
				"down": {"uv": [9, 0, 16, 10], "rotation": 270, "texture": "#0"}
			}
		},
		{
			"from": [7.58785, 0.03814, 7.01047],
			"to": [14.96785, 0.03814, 11.93047],
			"rotation": {"angle": 22.5, "axis": "y", "origin": [6.27785, 0.03814, 13.47047]},
			"faces": {
				"north": {"uv": [0, 0, 6, 1], "texture": "#0"},
				"east": {"uv": [0, 0, 4, 1], "texture": "#0"},
				"south": {"uv": [0, 0, 6, 1], "texture": "#0"},
				"west": {"uv": [0, 0, 4, 1], "texture": "#0"},
				"up": {"uv": [3, 5, 7, 10], "rotation": 90, "texture": "#0"},
				"down": {"uv": [3, 5, 7, 10], "rotation": 270, "texture": "#0"}
			}
		},
		{
			"from": [14.83821, 0.07355, -1.07437],
			"to": [22.21821, 0.07355, 3.84563],
			"rotation": {"angle": -45, "axis": "y", "origin": [5.52821, 0.07355, -7.53437]},
			"faces": {
				"north": {"uv": [0, 0, 6, 1], "texture": "#0"},
				"east": {"uv": [0, 0, 4, 1], "texture": "#0"},
				"south": {"uv": [0, 0, 6, 1], "texture": "#0"},
				"west": {"uv": [0, 0, 4, 1], "texture": "#0"},
				"up": {"uv": [9, 0, 16, 10], "rotation": 180, "texture": "#0"},
				"down": {"uv": [9, 0, 16, 10], "rotation": 270, "texture": "#0"}
			}
		},
		{
			"from": [3.81785, 0.16114, 6.09047],
			"to": [11.19785, 0.16114, 11.01047],
			"rotation": {"angle": -22.5, "axis": "y", "origin": [6.27785, 0.03814, 13.47047]},
			"faces": {
				"north": {"uv": [0, 0, 6, 1], "texture": "#0"},
				"east": {"uv": [0, 0, 4, 1], "texture": "#0"},
				"south": {"uv": [0, 0, 6, 1], "texture": "#0"},
				"west": {"uv": [0, 0, 4, 1], "texture": "#0"},
				"up": {"uv": [0, 0, 7, 10], "rotation": 90, "texture": "#0"},
				"down": {"uv": [0, 0, 7, 10], "rotation": 270, "texture": "#0"}
			}
		},
		{
			"from": [-7.72785, 0.0023, -6.77866],
			"to": [-0.34785, 0.0023, -1.85866],
			"rotation": {"angle": -45, "axis": "y", "origin": [-11.03785, 0.0023, 16.68134]},
			"faces": {
				"north": {"uv": [0, 0, 6, 1], "texture": "#0"},
				"east": {"uv": [0, 0, 4, 1], "texture": "#0"},
				"south": {"uv": [0, 0, 6, 1], "texture": "#0"},
				"west": {"uv": [0, 0, 4, 1], "texture": "#0"},
				"up": {"uv": [0, 0, 4, 5], "rotation": 90, "texture": "#0"},
				"down": {"uv": [0, 0, 4, 5], "rotation": 270, "texture": "#0"}
			}
		},
		{
			"from": [6.65215, 0.0023, 12.99134],
			"to": [11.57215, 0.0023, 20.37134],
			"rotation": {"angle": 22.5, "axis": "y", "origin": [-11.03785, 0.0023, 16.68134]},
			"faces": {
				"north": {"uv": [0, 0, 4, 1], "texture": "#0"},
				"east": {"uv": [0, 0, 6, 1], "texture": "#0"},
				"south": {"uv": [0, 0, 4, 1], "texture": "#0"},
				"west": {"uv": [0, 0, 6, 1], "texture": "#0"},
				"up": {"uv": [9, 0, 16, 10], "rotation": 180, "texture": "#0"},
				"down": {"uv": [9, 0, 16, 10], "rotation": 180, "texture": "#0"}
			}
		},
		{
			"from": [9.42215, 0.0023, 11.60134],
			"to": [14.34215, 0.0023, 18.98134],
			"rotation": {"angle": 22.5, "axis": "y", "origin": [-11.03785, 0.0023, 16.68134]},
			"faces": {
				"north": {"uv": [0, 0, 4, 1], "texture": "#0"},
				"east": {"uv": [0, 0, 6, 1], "texture": "#0"},
				"south": {"uv": [0, 0, 4, 1], "texture": "#0"},
				"west": {"uv": [0, 0, 6, 1], "texture": "#0"},
				"up": {"uv": [0, 0, 7, 10], "rotation": 180, "texture": "#0"},
				"down": {"uv": [0, 0, 7, 10], "rotation": 180, "texture": "#0"}
			}
		}
	],
	"display": {
		"thirdperson_righthand": {
			"rotation": [90, 0, 0],
			"translation": [0, 0, 9],
			"scale": [0.5, 1, 0.5]
		},
		"thirdperson_lefthand": {
			"rotation": [90, 0, 0],
			"translation": [0, 0, 9],
			"scale": [0.5, 1, 0.5]
		},
		"firstperson_righthand": {
			"translation": [0, 10, 0]
		},
		"firstperson_lefthand": {
			"translation": [0, 10, 0]
		},
		"ground": {
			"translation": [0, 5.75, 0]
		},
		"gui": {
			"rotation": [90, 0, 0]
		},
		"fixed": {
			"rotation": [90, 0, 0],
			"translation": [0, 0, 7.75]
		}
	}
}