{
	"credit": "Made with Blockbench",
	"texture_size": [128, 128],
	"textures": {
		"2": "tardis:item/squareness_gun",
		"particle": "tardis:item/squareness_gun"
	},
	"elements": [
		{
			"from": [-14.95413, -8.34214, 5.5],
			"to": [-8.82913, 2.28286, 10.5],
			"rotation": {"angle": -22.5, "axis": "z", "origin": [-13.26663, -6.52964, 8]},
			"faces": {
				"north": {"uv": [4.625, 0.625, 5.375, 1.875], "texture": "#2"},
				"east": {"uv": [4, 0.625, 4.625, 1.875], "texture": "#2"},
				"south": {"uv": [6, 0.625, 6.75, 1.875], "texture": "#2"},
				"west": {"uv": [5.375, 0.625, 6, 1.875], "texture": "#2"},
				"up": {"uv": [5.375, 0.625, 4.625, 0], "texture": "#2"},
				"down": {"uv": [6.125, 0, 5.375, 0.625], "texture": "#2"}
			}
		},
		{
			"from": [-15.32913, -8.46714, 5.125],
			"to": [-8.57913, -7.96714, 10.875],
			"rotation": {"angle": -22.5, "axis": "z", "origin": [-13.26663, -6.52964, 8]},
			"faces": {
				"north": {"uv": [3.5, 4.375, 4.375, 4.5], "texture": "#2"},
				"east": {"uv": [2.75, 4.375, 3.5, 4.5], "texture": "#2"},
				"south": {"uv": [5.125, 4.375, 6, 4.5], "texture": "#2"},
				"west": {"uv": [4.375, 4.375, 5.125, 4.5], "texture": "#2"},
				"up": {"uv": [4.375, 4.375, 3.5, 3.625], "texture": "#2"},
				"down": {"uv": [5.25, 3.625, 4.375, 4.375], "texture": "#2"}
			}
		},
		{
			"from": [-14.70413, -7.34214, 5.249],
			"to": [-9.20413, 2.28286, 10.759],
			"rotation": {"angle": -22.5, "axis": "z", "origin": [-13.26663, -6.52964, 8]},
			"faces": {
				"north": {"uv": [6.375, 2.5, 7, 3.625], "texture": "#2"},
				"east": {"uv": [5.75, 2.5, 6.375, 3.625], "texture": "#2"},
				"south": {"uv": [7.625, 2.5, 8.25, 3.625], "texture": "#2"},
				"west": {"uv": [7, 2.5, 7.625, 3.625], "texture": "#2"},
				"up": {"uv": [7, 2.5, 6.375, 1.875], "texture": "#2"},
				"down": {"uv": [7.625, 1.875, 7, 2.5], "texture": "#2"}
			}
		},
		{
			"from": [-13.95413, -6.09214, 5.01],
			"to": [-10.07913, 2.28286, 10.99],
			"rotation": {"angle": -22.5, "axis": "z", "origin": [-13.26663, -6.52964, 8]},
			"faces": {
				"north": {"uv": [0.75, 5.75, 1.125, 6.75], "texture": "#2"},
				"east": {"uv": [0.125, 5.75, 0.75, 6.75], "texture": "#2"},
				"south": {"uv": [1.75, 5.75, 2.125, 6.75], "texture": "#2"},
				"west": {"uv": [1.125, 5.75, 1.75, 6.75], "texture": "#2"},
				"up": {"uv": [1.125, 5.75, 0.75, 5.125], "texture": "#2"},
				"down": {"uv": [1.5, 5.125, 1.125, 5.75], "texture": "#2"}
			}
		},
		{
			"from": [-15.07719, -5.16174, 5.75],
			"to": [-14.82719, 2.46326, 10.25],
			"rotation": {"angle": -22.5, "axis": "z", "origin": [-13.51469, -6.34924, 8.25]},
			"faces": {
				"north": {"uv": [5.125, 9.5, 5.25, 10.5], "texture": "#2"},
				"east": {"uv": [4.5, 9.5, 5.125, 10.5], "texture": "#2"},
				"south": {"uv": [5.875, 9.5, 6, 10.5], "texture": "#2"},
				"west": {"uv": [5.25, 9.5, 5.875, 10.5], "texture": "#2"},
				"up": {"uv": [5.25, 9.5, 5.125, 8.875], "texture": "#2"},
				"down": {"uv": [5.375, 8.875, 5.25, 9.5], "texture": "#2"}
			}
		},
		{
			"from": [-15.80179, 3.33416, 5.5],
			"to": [-8.0884, 11.08416, 10.5],
			"rotation": {"angle": -45, "axis": "z", "origin": [-14.92679, -2.45313, 8]},
			"faces": {
				"north": {"uv": [0.625, 2.5, 1.5, 3.375], "texture": "#2"},
				"east": {"uv": [0, 2.5, 0.625, 3.375], "texture": "#2"},
				"south": {"uv": [2.125, 2.5, 3, 3.375], "texture": "#2"},
				"west": {"uv": [1.5, 2.5, 2.125, 3.375], "texture": "#2"},
				"up": {"uv": [1.5, 2.5, 0.625, 1.875], "texture": "#2"},
				"down": {"uv": [2.375, 1.875, 1.5, 2.5], "texture": "#2"}
			}
		},
		{
			"from": [-15.4976, 3.41527, 5.25],
			"to": [-8.28421, 11.16527, 10.75],
			"rotation": {"angle": -45, "axis": "z", "origin": [-14.8726, -2.37202, 8]},
			"faces": {
				"north": {"uv": [10.875, 0.625, 11.75, 1.5], "texture": "#2"},
				"east": {"uv": [10.25, 0.625, 10.875, 1.5], "texture": "#2"},
				"south": {"uv": [12.375, 0.625, 13.25, 1.5], "texture": "#2"},
				"west": {"uv": [11.75, 0.625, 12.375, 1.5], "texture": "#2"},
				"up": {"uv": [11.75, 0.625, 10.875, 0], "texture": "#2"},
				"down": {"uv": [12.625, 0, 11.75, 0.625], "texture": "#2"}
			}
		},
		{
			"from": [-14.58502, 3.65858, 5],
			"to": [-9.24663, 11.40858, 11],
			"rotation": {"angle": -45, "axis": "z", "origin": [-14.71002, -2.1287, 8]},
			"faces": {
				"north": {"uv": [3.75, 2.625, 4.375, 3.5], "texture": "#2"},
				"east": {"uv": [3, 2.625, 3.75, 3.5], "texture": "#2"},
				"south": {"uv": [5.125, 2.625, 5.75, 3.5], "texture": "#2"},
				"west": {"uv": [4.375, 2.625, 5.125, 3.5], "texture": "#2"},
				"up": {"uv": [4.375, 2.625, 3.75, 1.875], "texture": "#2"},
				"down": {"uv": [5, 1.875, 4.375, 2.625], "texture": "#2"}
			}
		},
		{
			"from": [-16, 3.30827, 5.749],
			"to": [-15.81251, 14.43327, 10.259],
			"rotation": {"angle": -45, "axis": "z", "origin": [-14.9009, -2.47902, 8]},
			"faces": {
				"north": {"uv": [3.875, 7.375, 4, 8.875], "texture": "#2"},
				"east": {"uv": [3.25, 7.375, 3.875, 8.875], "texture": "#2"},
				"south": {"uv": [4.625, 7.375, 4.75, 8.875], "texture": "#2"},
				"west": {"uv": [4, 7.375, 4.625, 8.875], "texture": "#2"},
				"up": {"uv": [4, 7.375, 3.875, 6.75], "texture": "#2"},
				"down": {"uv": [4.125, 6.75, 4, 7.375], "texture": "#2"}
			}
		},
		{
			"from": [-7.88582, 4.15069, 6.25],
			"to": [-7.69834, 11.52569, 9.75],
			"rotation": {"angle": -45, "axis": "z", "origin": [-7.54208, 6.21319, 8]},
			"faces": {
				"north": {"uv": [4.25, 11, 4.375, 12], "texture": "#2"},
				"east": {"uv": [3.75, 11, 4.25, 12], "texture": "#2"},
				"south": {"uv": [4.875, 11, 5, 12], "texture": "#2"},
				"west": {"uv": [4.375, 11, 4.875, 12], "texture": "#2"},
				"up": {"uv": [4.375, 11, 4.25, 10.5], "texture": "#2"},
				"down": {"uv": [4.5, 10.5, 4.375, 11], "texture": "#2"}
			}
		},
		{
			"from": [-4.36276, 3.87584, 5.25],
			"to": [-0.02437, 7.62584, 10.75],
			"rotation": {"angle": -45, "axis": "z", "origin": [-0.50607, 7.75084, 8]},
			"faces": {
				"north": {"uv": [0.625, 9.5, 1.125, 9.875], "texture": "#2"},
				"east": {"uv": [0, 9.5, 0.625, 9.875], "texture": "#2"},
				"south": {"uv": [1.75, 9.5, 2.25, 9.875], "texture": "#2"},
				"west": {"uv": [1.125, 9.5, 1.75, 9.875], "texture": "#2"},
				"up": {"uv": [1.125, 9.5, 0.625, 8.875], "texture": "#2"},
				"down": {"uv": [1.625, 8.875, 1.125, 9.5], "texture": "#2"}
			}
		},
		{
			"from": [-8.69792, -1.95931, 5.49],
			"to": [-7.60953, 0.66569, 10.5],
			"rotation": {"angle": -45, "axis": "z", "origin": [-11.46622, -3.20931, 8]},
			"faces": {
				"north": {"uv": [0.625, 13.625, 0.75, 13.875], "texture": "#2"},
				"east": {"uv": [0, 13.625, 0.625, 13.875], "texture": "#2"},
				"south": {"uv": [1.375, 13.625, 1.5, 13.875], "texture": "#2"},
				"west": {"uv": [0.75, 13.625, 1.375, 13.875], "texture": "#2"},
				"up": {"uv": [0.75, 13.625, 0.625, 13], "texture": "#2"},
				"down": {"uv": [0.875, 13, 0.75, 13.625], "texture": "#2"}
			}
		},
		{
			"from": [-9.18034, -2.34159, 5.25],
			"to": [-7.84195, 0.65841, 10.75],
			"rotation": {"angle": -45, "axis": "z", "origin": [-11.32364, -3.21659, 8]},
			"faces": {
				"north": {"uv": [2.375, 12.625, 2.5, 13], "texture": "#2"},
				"east": {"uv": [1.75, 12.625, 2.375, 13], "texture": "#2"},
				"south": {"uv": [3.125, 12.625, 3.25, 13], "texture": "#2"},
				"west": {"uv": [2.5, 12.625, 3.125, 13], "texture": "#2"},
				"up": {"uv": [2.5, 12.625, 2.375, 12], "texture": "#2"},
				"down": {"uv": [2.625, 12, 2.5, 12.625], "texture": "#2"}
			}
		},
		{
			"from": [-10.5873, -1.80906, 5],
			"to": [-9.24891, 1.06594, 11],
			"rotation": {"angle": -45, "axis": "z", "origin": [-11.58156, -3.42778, 8]},
			"faces": {
				"north": {"uv": [2.75, 11.25, 2.875, 11.5], "texture": "#2"},
				"east": {"uv": [2, 11.25, 2.75, 11.5], "texture": "#2"},
				"south": {"uv": [3.625, 11.25, 3.75, 11.5], "texture": "#2"},
				"west": {"uv": [2.875, 11.25, 3.625, 11.5], "texture": "#2"},
				"up": {"uv": [2.875, 11.25, 2.75, 10.5], "texture": "#2"},
				"down": {"uv": [3, 10.5, 2.875, 11.25], "texture": "#2"}
			}
		},
		{
			"from": [-3.16827, 7.24395, 5.51],
			"to": [6.58173, 10.61895, 10.49],
			"rotation": {"angle": 22.5, "axis": "z", "origin": [-2.66827, 10.11895, 6]},
			"faces": {
				"north": {"uv": [7.375, 0.625, 8.5, 1], "texture": "#2"},
				"east": {"uv": [6.875, 0.625, 7.375, 1], "texture": "#2"},
				"south": {"uv": [9, 0.625, 10.125, 1], "texture": "#2"},
				"west": {"uv": [8.5, 0.625, 9, 1], "texture": "#2"},
				"up": {"uv": [8.5, 0.625, 7.375, 0.125], "texture": "#2"},
				"down": {"uv": [9.625, 0.125, 8.5, 0.625], "texture": "#2"}
			}
		},
		{
			"from": [5.68627, 9.62071, 5.5],
			"to": [9.93627, 14.12071, 10.5],
			"rotation": {"angle": 0, "axis": "z", "origin": [6.18627, 13.62071, 6]},
			"faces": {
				"north": {"uv": [8.375, 7.375, 8.875, 7.875], "texture": "#2"},
				"east": {"uv": [7.75, 7.375, 8.375, 7.875], "texture": "#2"},
				"south": {"uv": [9.5, 7.375, 10, 7.875], "texture": "#2"},
				"west": {"uv": [8.875, 7.375, 9.5, 7.875], "texture": "#2"},
				"up": {"uv": [8.875, 7.375, 8.375, 6.75], "texture": "#2"},
				"down": {"uv": [9.375, 6.75, 8.875, 7.375], "texture": "#2"}
			}
		},
		{
			"from": [8.93627, 7.12071, 5],
			"to": [14.18627, 12.99571, 11],
			"rotation": {"angle": 0, "axis": "z", "origin": [6.18627, 13.62071, 6]},
			"faces": {
				"north": {"uv": [0.75, 4.375, 1.375, 5], "texture": "#2"},
				"east": {"uv": [0, 4.375, 0.75, 5], "texture": "#2"},
				"south": {"uv": [2.125, 4.375, 2.75, 5], "texture": "#2"},
				"west": {"uv": [1.375, 4.375, 2.125, 5], "texture": "#2"},
				"up": {"uv": [1.375, 4.375, 0.75, 3.625], "texture": "#2"},
				"down": {"uv": [2, 3.625, 1.375, 4.375], "texture": "#2"}
			}
		},
		{
			"from": [11.81127, 11.62071, 4.875],
			"to": [12.81127, 12.62071, 5],
			"rotation": {"angle": 0, "axis": "z", "origin": [6.18627, 13.62071, 6]},
			"faces": {
				"north": {"uv": [4.875, 14.125, 5.125, 14.375], "texture": "#2"},
				"east": {"uv": [4.75, 14.125, 4.875, 14.375], "texture": "#2"},
				"south": {"uv": [5.25, 14.125, 5.5, 14.375], "texture": "#2"},
				"west": {"uv": [5.125, 14.125, 5.25, 14.375], "texture": "#2"},
				"up": {"uv": [5.125, 14.125, 4.875, 14], "texture": "#2"},
				"down": {"uv": [5.375, 14, 5.125, 14.125], "texture": "#2"}
			}
		},
		{
			"from": [11.81127, 11.62071, 11],
			"to": [12.81127, 12.62071, 11.125],
			"rotation": {"angle": 0, "axis": "z", "origin": [6.18627, 13.62071, 6]},
			"faces": {
				"north": {"uv": [3.375, 14.125, 3.625, 14.375], "texture": "#2"},
				"east": {"uv": [3.25, 14.125, 3.375, 14.375], "texture": "#2"},
				"south": {"uv": [3.75, 14.125, 4, 14.375], "texture": "#2"},
				"west": {"uv": [3.625, 14.125, 3.75, 14.375], "texture": "#2"},
				"up": {"uv": [3.625, 14.125, 3.375, 14], "texture": "#2"},
				"down": {"uv": [3.875, 14, 3.625, 14.125], "texture": "#2"}
			}
		},
		{
			"from": [11.81127, 7.49571, 4.875],
			"to": [12.81127, 8.49571, 5],
			"rotation": {"angle": 0, "axis": "z", "origin": [6.18627, 13.62071, 6]},
			"faces": {
				"north": {"uv": [4.125, 14.125, 4.375, 14.375], "texture": "#2"},
				"east": {"uv": [4, 14.125, 4.125, 14.375], "texture": "#2"},
				"south": {"uv": [4.5, 14.125, 4.75, 14.375], "texture": "#2"},
				"west": {"uv": [4.375, 14.125, 4.5, 14.375], "texture": "#2"},
				"up": {"uv": [4.375, 14.125, 4.125, 14], "texture": "#2"},
				"down": {"uv": [4.625, 14, 4.375, 14.125], "texture": "#2"}
			}
		},
		{
			"from": [11.81127, 7.49571, 11],
			"to": [12.81127, 8.49571, 11.125],
			"rotation": {"angle": 0, "axis": "z", "origin": [6.18627, 13.62071, 6]},
			"faces": {
				"north": {"uv": [2.625, 14.125, 2.875, 14.375], "texture": "#2"},
				"east": {"uv": [2.5, 14.125, 2.625, 14.375], "texture": "#2"},
				"south": {"uv": [3, 14.125, 3.25, 14.375], "texture": "#2"},
				"west": {"uv": [2.875, 14.125, 3, 14.375], "texture": "#2"},
				"up": {"uv": [2.875, 14.125, 2.625, 14], "texture": "#2"},
				"down": {"uv": [3.125, 14, 2.875, 14.125], "texture": "#2"}
			}
		},
		{
			"from": [15.43627, 7.12071, 5],
			"to": [19.81127, 12.99571, 11],
			"rotation": {"angle": 0, "axis": "z", "origin": [6.18627, 13.62071, 6]},
			"faces": {
				"north": {"uv": [3, 5.75, 3.5, 6.375], "texture": "#2"},
				"east": {"uv": [2.25, 5.75, 3, 6.375], "texture": "#2"},
				"south": {"uv": [4.25, 5.75, 4.75, 6.375], "texture": "#2"},
				"west": {"uv": [3.5, 5.75, 4.25, 6.375], "texture": "#2"},
				"up": {"uv": [3.5, 5.75, 3, 5], "texture": "#2"},
				"down": {"uv": [4, 5, 3.5, 5.75], "texture": "#2"}
			}
		},
		{
			"from": [26.43627, 6.37071, 5],
			"to": [30.81127, 13.74571, 11],
			"rotation": {"angle": 0, "axis": "z", "origin": [6.18627, 13.62071, 6]},
			"faces": {
				"north": {"uv": [9, 2.625, 9.5, 3.5], "texture": "#2"},
				"east": {"uv": [8.25, 2.625, 9, 3.5], "texture": "#2"},
				"south": {"uv": [10.25, 2.625, 10.75, 3.5], "texture": "#2"},
				"west": {"uv": [9.5, 2.625, 10.25, 3.5], "texture": "#2"},
				"up": {"uv": [9.5, 2.625, 9, 1.875], "texture": "#2"},
				"down": {"uv": [10, 1.875, 9.5, 2.625], "texture": "#2"}
			}
		},
		{
			"from": [30.81127, 6.87071, 5.5],
			"to": [31.18627, 13.24571, 5.875],
			"rotation": {"angle": 0, "axis": "z", "origin": [6.18627, 13.62071, 6]},
			"faces": {
				"north": {"uv": [8.375, 13.125, 8.5, 14], "texture": "#2"},
				"east": {"uv": [8.25, 13.125, 8.375, 14], "texture": "#2"},
				"south": {"uv": [8.625, 13.125, 8.75, 14], "texture": "#2"},
				"west": {"uv": [8.5, 13.125, 8.625, 14], "texture": "#2"},
				"up": {"uv": [8.5, 13.125, 8.375, 13], "texture": "#2"},
				"down": {"uv": [8.625, 13, 8.5, 13.125], "texture": "#2"}
			}
		},
		{
			"from": [30.81127, 12.74571, 5.875],
			"to": [31.18627, 13.24571, 10.125],
			"rotation": {"angle": 0, "axis": "z", "origin": [6.18627, 13.62071, 6]},
			"faces": {
				"north": {"uv": [3.625, 13.625, 3.75, 13.75], "texture": "#2"},
				"east": {"uv": [3, 13.625, 3.625, 13.75], "texture": "#2"},
				"south": {"uv": [4.375, 13.625, 4.5, 13.75], "texture": "#2"},
				"west": {"uv": [3.75, 13.625, 4.375, 13.75], "texture": "#2"},
				"up": {"uv": [3.75, 13.625, 3.625, 13], "texture": "#2"},
				"down": {"uv": [3.875, 13, 3.75, 13.625], "texture": "#2"}
			}
		},
		{
			"from": [30.81127, 7.37071, 5.875],
			"to": [30.93627, 12.74571, 10.125],
			"rotation": {"angle": 0, "axis": "z", "origin": [6.18627, 13.62071, 6]},
			"faces": {
				"north": {"uv": [6.625, 9.5, 6.75, 10.25], "texture": "#2"},
				"east": {"uv": [6, 9.5, 6.625, 10.25], "texture": "#2"},
				"south": {"uv": [7.375, 9.5, 7.5, 10.25], "texture": "#2"},
				"west": {"uv": [6.75, 9.5, 7.375, 10.25], "texture": "#2"},
				"up": {"uv": [6.75, 9.5, 6.625, 8.875], "texture": "#2"},
				"down": {"uv": [6.875, 8.875, 6.75, 9.5], "texture": "#2"}
			}
		},
		{
			"from": [30.81127, 6.87071, 5.875],
			"to": [31.18627, 7.37071, 10.125],
			"rotation": {"angle": 0, "axis": "z", "origin": [6.18627, 13.62071, 6]},
			"faces": {
				"north": {"uv": [2.125, 13.625, 2.25, 13.75], "texture": "#2"},
				"east": {"uv": [1.5, 13.625, 2.125, 13.75], "texture": "#2"},
				"south": {"uv": [2.875, 13.625, 3, 13.75], "texture": "#2"},
				"west": {"uv": [2.25, 13.625, 2.875, 13.75], "texture": "#2"},
				"up": {"uv": [2.25, 13.625, 2.125, 13], "texture": "#2"},
				"down": {"uv": [2.375, 13, 2.25, 13.625], "texture": "#2"}
			}
		},
		{
			"from": [30.81127, 6.87071, 10.125],
			"to": [31.18627, 13.24571, 10.5],
			"rotation": {"angle": 0, "axis": "z", "origin": [6.18627, 13.62071, 6]},
			"faces": {
				"north": {"uv": [7.875, 13.125, 8, 14], "texture": "#2"},
				"east": {"uv": [7.75, 13.125, 7.875, 14], "texture": "#2"},
				"south": {"uv": [8.125, 13.125, 8.25, 14], "texture": "#2"},
				"west": {"uv": [8, 13.125, 8.125, 14], "texture": "#2"},
				"up": {"uv": [8, 13.125, 7.875, 13], "texture": "#2"},
				"down": {"uv": [8.125, 13, 8, 13.125], "texture": "#2"}
			}
		},
		{
			"from": [19.81127, 7.37071, 5.25],
			"to": [26.43627, 12.74571, 10.75],
			"rotation": {"angle": 0, "axis": "z", "origin": [6.18627, 13.62071, 6]},
			"faces": {
				"north": {"uv": [6.625, 4.25, 7.375, 4.875], "texture": "#2"},
				"east": {"uv": [6, 4.25, 6.625, 4.875], "texture": "#2"},
				"south": {"uv": [8, 4.25, 8.75, 4.875], "texture": "#2"},
				"west": {"uv": [7.375, 4.25, 8, 4.875], "texture": "#2"},
				"up": {"uv": [7.375, 4.25, 6.625, 3.625], "texture": "#2"},
				"down": {"uv": [8.125, 3.625, 7.375, 4.25], "texture": "#2"}
			}
		},
		{
			"from": [14.18627, 7.49571, 5.25],
			"to": [15.43627, 12.74571, 10.625],
			"rotation": {"angle": 0, "axis": "z", "origin": [6.18627, 13.62071, 6]},
			"faces": {
				"north": {"uv": [8.125, 9.5, 8.25, 10.125], "texture": "#2"},
				"east": {"uv": [7.5, 9.5, 8.125, 10.125], "texture": "#2"},
				"south": {"uv": [8.875, 9.5, 9, 10.125], "texture": "#2"},
				"west": {"uv": [8.25, 9.5, 8.875, 10.125], "texture": "#2"},
				"up": {"uv": [8.25, 9.5, 8.125, 8.875], "texture": "#2"},
				"down": {"uv": [8.375, 8.875, 8.25, 9.5], "texture": "#2"}
			}
		},
		{
			"from": [3.56127, 9.62071, 5.5],
			"to": [5.68627, 10.49571, 10.5],
			"rotation": {"angle": 0, "axis": "z", "origin": [6.18627, 13.62071, 6]},
			"faces": {
				"north": {"uv": [3, 9.625, 3.375, 9.75], "texture": "#2"},
				"east": {"uv": [2.25, 9.625, 3, 9.75], "texture": "#2"},
				"south": {"uv": [4.125, 9.625, 4.5, 9.75], "texture": "#2"},
				"west": {"uv": [3.375, 9.625, 4.125, 9.75], "texture": "#2"},
				"up": {"uv": [3.375, 9.625, 3, 8.875], "texture": "#2"},
				"down": {"uv": [3.75, 8.875, 3.375, 9.625], "texture": "#2"}
			}
		},
		{
			"from": [-0.81373, 7.12071, 5.5],
			"to": [8.93627, 7.99571, 10.5],
			"rotation": {"angle": 0, "axis": "z", "origin": [6.18627, 13.62071, 6]},
			"faces": {
				"north": {"uv": [0.75, 0.75, 2, 0.875], "texture": "#2"},
				"east": {"uv": [0, 0.75, 0.75, 0.875], "texture": "#2"},
				"south": {"uv": [2.75, 0.75, 4, 0.875], "texture": "#2"},
				"west": {"uv": [2, 0.75, 2.75, 0.875], "texture": "#2"},
				"up": {"uv": [2, 0.75, 0.75, 0], "texture": "#2"},
				"down": {"uv": [3.25, 0, 2, 0.75], "texture": "#2"}
			}
		},
		{
			"from": [6.68627, 7.99571, 5.5],
			"to": [8.93627, 9.62071, 10.5],
			"rotation": {"angle": 0, "axis": "z", "origin": [6.18627, 13.62071, 6]},
			"faces": {
				"north": {"uv": [0.625, 12.625, 0.875, 12.75], "texture": "#2"},
				"east": {"uv": [0, 12.625, 0.625, 12.75], "texture": "#2"},
				"south": {"uv": [1.5, 12.625, 1.75, 12.75], "texture": "#2"},
				"west": {"uv": [0.875, 12.625, 1.5, 12.75], "texture": "#2"},
				"up": {"uv": [0.875, 12.625, 0.625, 12], "texture": "#2"},
				"down": {"uv": [1.125, 12, 0.875, 12.625], "texture": "#2"}
			}
		},
		{
			"from": [6.43627, 7.99571, 5.75],
			"to": [6.68627, 9.62071, 10.25],
			"rotation": {"angle": 0, "axis": "z", "origin": [6.18627, 13.62071, 6]},
			"faces": {
				"north": {"uv": [10.125, 12.625, 10.25, 12.875], "texture": "#2"},
				"east": {"uv": [9.5, 12.625, 10.125, 12.875], "texture": "#2"},
				"south": {"uv": [10.875, 12.625, 11, 12.875], "texture": "#2"},
				"west": {"uv": [10.25, 12.625, 10.875, 12.875], "texture": "#2"},
				"up": {"uv": [10.25, 12.625, 10.125, 12], "texture": "#2"},
				"down": {"uv": [10.375, 12, 10.25, 12.625], "texture": "#2"}
			}
		},
		{
			"from": [5.43627, 7.99571, 5.75],
			"to": [5.68627, 9.62071, 10.25],
			"rotation": {"angle": 0, "axis": "z", "origin": [6.18627, 13.62071, 6]},
			"faces": {
				"north": {"uv": [8.625, 12.625, 8.75, 12.875], "texture": "#2"},
				"east": {"uv": [8, 12.625, 8.625, 12.875], "texture": "#2"},
				"south": {"uv": [9.375, 12.625, 9.5, 12.875], "texture": "#2"},
				"west": {"uv": [8.75, 12.625, 9.375, 12.875], "texture": "#2"},
				"up": {"uv": [8.75, 12.625, 8.625, 12], "texture": "#2"},
				"down": {"uv": [8.875, 12, 8.75, 12.625], "texture": "#2"}
			}
		},
		{
			"from": [4.31127, 7.99571, 5.75],
			"to": [4.56127, 9.62071, 10.25],
			"rotation": {"angle": 0, "axis": "z", "origin": [6.18627, 13.62071, 6]},
			"faces": {
				"north": {"uv": [7.125, 12.625, 7.25, 12.875], "texture": "#2"},
				"east": {"uv": [6.5, 12.625, 7.125, 12.875], "texture": "#2"},
				"south": {"uv": [7.875, 12.625, 8, 12.875], "texture": "#2"},
				"west": {"uv": [7.25, 12.625, 7.875, 12.875], "texture": "#2"},
				"up": {"uv": [7.25, 12.625, 7.125, 12], "texture": "#2"},
				"down": {"uv": [7.375, 12, 7.25, 12.625], "texture": "#2"}
			}
		},
		{
			"from": [2.68627, 7.99571, 5.75],
			"to": [3.31127, 9.62071, 10.25],
			"rotation": {"angle": 0, "axis": "z", "origin": [6.18627, 13.62071, 6]},
			"faces": {
				"north": {"uv": [5.625, 12.625, 5.75, 12.875], "texture": "#2"},
				"east": {"uv": [5, 12.625, 5.625, 12.875], "texture": "#2"},
				"south": {"uv": [6.375, 12.625, 6.5, 12.875], "texture": "#2"},
				"west": {"uv": [5.75, 12.625, 6.375, 12.875], "texture": "#2"},
				"up": {"uv": [5.75, 12.625, 5.625, 12], "texture": "#2"},
				"down": {"uv": [5.875, 12, 5.75, 12.625], "texture": "#2"}
			}
		},
		{
			"from": [3.31127, 7.99571, 6],
			"to": [6.43627, 9.62071, 10],
			"rotation": {"angle": 0, "axis": "z", "origin": [6.18627, 13.62071, 6]},
			"faces": {
				"north": {"uv": [3.75, 12.5, 4.125, 12.625], "texture": "#2"},
				"east": {"uv": [3.25, 12.5, 3.75, 12.625], "texture": "#2"},
				"south": {"uv": [4.625, 12.5, 5, 12.625], "texture": "#2"},
				"west": {"uv": [4.125, 12.5, 4.625, 12.625], "texture": "#2"},
				"up": {"uv": [4.125, 12.5, 3.75, 12], "texture": "#2"},
				"down": {"uv": [4.5, 12, 4.125, 12.5], "texture": "#2"}
			}
		},
		{
			"from": [-1.31373, 4.60707, 10.56847],
			"to": [8.93627, 5.48207, 11.81847],
			"rotation": {"angle": 45, "axis": "x", "origin": [6.18627, 11.98207, 11.06847]},
			"faces": {
				"north": {"uv": [0.25, 7, 1.625, 7.125], "texture": "#2"},
				"east": {"uv": [0, 7, 0.25, 7.125], "texture": "#2"},
				"south": {"uv": [1.875, 7, 3.25, 7.125], "texture": "#2"},
				"west": {"uv": [1.625, 7, 1.875, 7.125], "texture": "#2"},
				"up": {"uv": [1.625, 7, 0.25, 6.75], "texture": "#2"},
				"down": {"uv": [3, 6.75, 1.625, 7], "texture": "#2"}
			}
		},
		{
			"from": [4.43627, 2.73055, 6.3776],
			"to": [8.93627, 7.23055, 9.6276],
			"rotation": {"angle": 0, "axis": "x", "origin": [6.18627, 13.35555, 6.2526]},
			"faces": {
				"north": {"uv": [5.375, 11.25, 5.875, 11.75], "texture": "#2"},
				"east": {"uv": [5, 11.25, 5.375, 11.75], "texture": "#2"},
				"south": {"uv": [6.25, 11.25, 6.75, 11.75], "texture": "#2"},
				"west": {"uv": [5.875, 11.25, 6.25, 11.75], "texture": "#2"},
				"up": {"uv": [5.875, 11.25, 5.375, 10.875], "texture": "#2"},
				"down": {"uv": [6.375, 10.875, 5.875, 11.25], "texture": "#2"}
			}
		},
		{
			"from": [8.93627, 2.73055, 6.7526],
			"to": [16.18627, 3.85555, 9.2526],
			"rotation": {"angle": 0, "axis": "x", "origin": [12.56127, 3.29305, 8.0026]},
			"faces": {
				"north": {"uv": [5.25, 10.75, 6.125, 10.875], "texture": "#2"},
				"east": {"uv": [5, 10.75, 5.25, 10.875], "texture": "#2"},
				"south": {"uv": [6.375, 10.75, 7.25, 10.875], "texture": "#2"},
				"west": {"uv": [6.125, 10.75, 6.375, 10.875], "texture": "#2"},
				"up": {"uv": [6.125, 10.75, 5.25, 10.5], "texture": "#2"},
				"down": {"uv": [7, 10.5, 6.125, 10.75], "texture": "#2"}
			}
		},
		{
			"from": [15.69508, 4.07496, 6.7526],
			"to": [27.44508, 5.19996, 9.2526],
			"rotation": {"angle": 22.5, "axis": "z", "origin": [19.32008, 4.63746, 8.0026]},
			"faces": {
				"north": {"uv": [2.5, 6.625, 3.875, 6.75], "texture": "#2"},
				"east": {"uv": [2.25, 6.625, 2.5, 6.75], "texture": "#2"},
				"south": {"uv": [4.125, 6.625, 5.5, 6.75], "texture": "#2"},
				"west": {"uv": [3.875, 6.625, 4.125, 6.75], "texture": "#2"},
				"up": {"uv": [3.875, 6.625, 2.5, 6.375], "texture": "#2"},
				"down": {"uv": [5.25, 6.375, 3.875, 6.625], "texture": "#2"}
			}
		},
		{
			"from": [15.26456, 5.11432, 7.49],
			"to": [27.01456, 8.73932, 8.59],
			"rotation": {"angle": 22.5, "axis": "z", "origin": [18.88956, 5.67682, 8.0026]},
			"faces": {
				"north": {"uv": [4.875, 6.875, 6.25, 7.25], "texture": "#2"},
				"east": {"uv": [4.75, 6.875, 4.875, 7.25], "texture": "#2"},
				"south": {"uv": [6.375, 6.875, 7.75, 7.25], "texture": "#2"},
				"west": {"uv": [6.25, 6.875, 6.375, 7.25], "texture": "#2"},
				"up": {"uv": [6.25, 6.875, 4.875, 6.75], "texture": "#2"},
				"down": {"uv": [7.625, 6.75, 6.25, 6.875], "texture": "#2"}
			}
		},
		{
			"from": [12.25885, -1.48208, 7.49],
			"to": [14.63385, 0.26792, 8.59],
			"rotation": {"angle": 45, "axis": "z", "origin": [6.53398, 1.18029, 8.0026]},
			"faces": {
				"north": {"uv": [5.625, 14.125, 5.875, 14.25], "texture": "#2"},
				"east": {"uv": [5.5, 14.125, 5.625, 14.25], "texture": "#2"},
				"south": {"uv": [6, 14.125, 6.25, 14.25], "texture": "#2"},
				"west": {"uv": [5.875, 14.125, 6, 14.25], "texture": "#2"},
				"up": {"uv": [5.875, 14.125, 5.625, 14], "texture": "#2"},
				"down": {"uv": [6.125, 14, 5.875, 14.125], "texture": "#2"}
			}
		},
		{
			"from": [8.56591, 0.82345, 7.5],
			"to": [11.81591, 1.94845, 8.5],
			"rotation": {"angle": 22.5, "axis": "z", "origin": [4.05089, 3.66922, 8.0026]},
			"faces": {
				"north": {"uv": [0.125, 14.125, 0.5, 14.25], "texture": "#2"},
				"east": {"uv": [0, 14.125, 0.125, 14.25], "texture": "#2"},
				"south": {"uv": [0.625, 14.125, 1, 14.25], "texture": "#2"},
				"west": {"uv": [0.5, 14.125, 0.625, 14.25], "texture": "#2"},
				"up": {"uv": [0.5, 14.125, 0.125, 14], "texture": "#2"},
				"down": {"uv": [0.875, 14, 0.5, 14.125], "texture": "#2"}
			}
		},
		{
			"from": [12.86853, 3.74398, 7.5],
			"to": [16.11853, 7.49398, 8.5],
			"rotation": {"angle": 0, "axis": "z", "origin": [6.24353, 4.05648, 8.0026]},
			"faces": {
				"north": {"uv": [8.875, 13.125, 9.25, 13.5], "texture": "#2"},
				"east": {"uv": [8.75, 13.125, 8.875, 13.5], "texture": "#2"},
				"south": {"uv": [9.375, 13.125, 9.75, 13.5], "texture": "#2"},
				"west": {"uv": [9.25, 13.125, 9.375, 13.5], "texture": "#2"},
				"up": {"uv": [9.25, 13.125, 8.875, 13], "texture": "#2"},
				"down": {"uv": [9.625, 13, 9.25, 13.125], "texture": "#2"}
			}
		},
		{
			"from": [8.86853, 6.24398, 7.5],
			"to": [12.86853, 7.11898, 8.5],
			"rotation": {"angle": 0, "axis": "z", "origin": [2.99353, 4.05648, 8.0026]},
			"faces": {
				"north": {"uv": [6.25, 13.25, 6.875, 13.375], "texture": "#2"},
				"east": {"uv": [6, 13.25, 6.25, 13.375], "texture": "#2"},
				"south": {"uv": [7.125, 13.25, 7.75, 13.375], "texture": "#2"},
				"west": {"uv": [6.875, 13.25, 7.125, 13.375], "texture": "#2"},
				"up": {"uv": [6.875, 13.25, 6.25, 13], "texture": "#2"},
				"down": {"uv": [7.5, 13, 6.875, 13.25], "texture": "#2"}
			}
		},
		{
			"from": [-1.81373, 6.35555, 6.3776],
			"to": [4.43627, 6.85555, 9.6276],
			"rotation": {"angle": 0, "axis": "x", "origin": [6.18627, 13.35555, 6.2526]},
			"faces": {
				"north": {"uv": [5.25, 7.75, 6.125, 7.875], "texture": "#2"},
				"east": {"uv": [4.75, 7.75, 5.25, 7.875], "texture": "#2"},
				"south": {"uv": [6.625, 7.75, 7.5, 7.875], "texture": "#2"},
				"west": {"uv": [6.125, 7.75, 6.625, 7.875], "texture": "#2"},
				"up": {"uv": [6.125, 7.75, 5.25, 7.25], "texture": "#2"},
				"down": {"uv": [7, 7.25, 6.125, 7.75], "texture": "#2"}
			}
		},
		{
			"from": [-5.06373, 2.48055, 6.875],
			"to": [-0.56373, 6.85555, 9.125],
			"rotation": {"angle": 0, "axis": "x", "origin": [6.18627, 13.35555, 6.2526]},
			"faces": {
				"north": {"uv": [4.75, 13.25, 5.25, 13.75], "texture": "#2"},
				"east": {"uv": [4.5, 13.25, 4.75, 13.75], "texture": "#2"},
				"south": {"uv": [5.5, 13.25, 6, 13.75], "texture": "#2"},
				"west": {"uv": [5.25, 13.25, 5.5, 13.75], "texture": "#2"},
				"up": {"uv": [5.25, 13.25, 4.75, 13], "texture": "#2"},
				"down": {"uv": [5.75, 13, 5.25, 13.25], "texture": "#2"}
			}
		},
		{
			"from": [-1.94954, 3.65652, 7],
			"to": [-0.19954, 6.28152, 9],
			"rotation": {"angle": -22.5, "axis": "z", "origin": [0.31127, 4.66805, 8.0026]},
			"faces": {
				"north": {"uv": [2, 14.25, 2.125, 14.5], "texture": "#2"},
				"east": {"uv": [1.75, 14.25, 2, 14.5], "texture": "#2"},
				"south": {"uv": [2.375, 14.25, 2.5, 14.5], "texture": "#2"},
				"west": {"uv": [2.125, 14.25, 2.375, 14.5], "texture": "#2"},
				"up": {"uv": [2.125, 14.25, 2, 14], "texture": "#2"},
				"down": {"uv": [2.25, 14, 2.125, 14.25], "texture": "#2"}
			}
		},
		{
			"from": [-0.80647, 2.13778, 7],
			"to": [0.81853, 5.01278, 9],
			"rotation": {"angle": 45, "axis": "z", "origin": [0.95435, 3.14931, 8.0026]},
			"faces": {
				"north": {"uv": [1.25, 14.25, 1.375, 14.5], "texture": "#2"},
				"east": {"uv": [1, 14.25, 1.25, 14.5], "texture": "#2"},
				"south": {"uv": [1.625, 14.25, 1.75, 14.5], "texture": "#2"},
				"west": {"uv": [1.375, 14.25, 1.625, 14.5], "texture": "#2"},
				"up": {"uv": [1.375, 14.25, 1.25, 14], "texture": "#2"},
				"down": {"uv": [1.5, 14, 1.375, 14.25], "texture": "#2"}
			}
		},
		{
			"from": [-1.31373, 4.4303, 4.25476],
			"to": [8.93627, 5.3053, 5.50476],
			"rotation": {"angle": -45, "axis": "x", "origin": [6.18627, 11.8053, 4.75476]},
			"faces": {
				"north": {"uv": [5.75, 5.25, 7.125, 5.375], "texture": "#2"},
				"east": {"uv": [5.5, 5.25, 5.75, 5.375], "texture": "#2"},
				"south": {"uv": [7.375, 5.25, 8.75, 5.375], "texture": "#2"},
				"west": {"uv": [7.125, 5.25, 7.375, 5.375], "texture": "#2"},
				"up": {"uv": [7.125, 5.25, 5.75, 5], "texture": "#2"},
				"down": {"uv": [8.5, 5, 7.125, 5.25], "texture": "#2"}
			}
		},
		{
			"from": [-0.31373, 7.99571, 5.5],
			"to": [2.68627, 9.24571, 10.5],
			"rotation": {"angle": 0, "axis": "z", "origin": [6.18627, 13.62071, 6]},
			"faces": {
				"north": {"uv": [0.625, 11.125, 1, 11.25], "texture": "#2"},
				"east": {"uv": [0, 11.125, 0.625, 11.25], "texture": "#2"},
				"south": {"uv": [1.625, 11.125, 2, 11.25], "texture": "#2"},
				"west": {"uv": [1, 11.125, 1.625, 11.25], "texture": "#2"},
				"up": {"uv": [1, 11.125, 0.625, 10.5], "texture": "#2"},
				"down": {"uv": [1.375, 10.5, 1, 11.125], "texture": "#2"}
			}
		},
		{
			"from": [-2.42595, 10.54283, 5.875],
			"to": [4.82405, 10.79283, 10.125],
			"rotation": {"angle": 22.5, "axis": "z", "origin": [-3.05095, 11.04283, 6]},
			"faces": {
				"north": {"uv": [9.375, 4.25, 10.375, 4.375], "texture": "#2"},
				"east": {"uv": [8.75, 4.25, 9.375, 4.375], "texture": "#2"},
				"south": {"uv": [11, 4.25, 12, 4.375], "texture": "#2"},
				"west": {"uv": [10.375, 4.25, 11, 4.375], "texture": "#2"},
				"up": {"uv": [10.375, 4.25, 9.375, 3.625], "texture": "#2"},
				"down": {"uv": [11.375, 3.625, 10.375, 4.25], "texture": "#2"}
			}
		},
		{
			"from": [-1.38919, 12.74327, 6.375],
			"to": [2.48581, 12.99327, 9.625],
			"rotation": {"angle": 22.5, "axis": "z", "origin": [1.68268, 12.86827, 8.5]},
			"faces": {
				"north": {"uv": [7.75, 11, 8.25, 11.125], "texture": "#2"},
				"east": {"uv": [7.25, 11, 7.75, 11.125], "texture": "#2"},
				"south": {"uv": [8.75, 11, 9.25, 11.125], "texture": "#2"},
				"west": {"uv": [8.25, 11, 8.75, 11.125], "texture": "#2"},
				"up": {"uv": [8.25, 11, 7.75, 10.5], "texture": "#2"},
				"down": {"uv": [8.75, 10.5, 8.25, 11], "texture": "#2"}
			}
		}
	],
	"display": {
		"thirdperson_righthand": {
			"rotation": [0, 90, 0],
			"translation": [0, 1.25, -2],
			"scale": [0.2, 0.2, 0.2]
		},
		"thirdperson_lefthand": {
			"rotation": [0, -90, 0],
			"translation": [0, 1.25, -2],
			"scale": [0.2, 0.2, 0.2]
		},
		"firstperson_righthand": {
			"rotation": [0, 84, 0],
			"translation": [4.5, 2.75, -5.75],
			"scale": [0.4, 0.4, 0.4]
		},
		"firstperson_lefthand": {
			"rotation": [0, -84, 0],
			"translation": [4.5, 2.75, -5.75],
			"scale": [0.4, 0.4, 0.4]
		},
		"ground": {
			"scale": [0.2, 0.2, 0.2]
		},
		"gui": {
			"rotation": [42, -38, 25],
			"translation": [-1, 0.75, 0],
			"scale": [0.42, 0.42, 0.42]
		},
		"head": {
			"rotation": [0, 90, 0],
			"translation": [0, 3.75, -3.25],
			"scale": [0.4, 0.4, 0.4]
		},
		"fixed": {
			"rotation": [0, 0, 22],
			"scale": [0.4, 0.4, 0.4]
		}
	},
	"groups": [
		{
			"name": "Handle",
			"origin": [8, 8, 8],
			"children": [0, 1, 2, 3, 4, 5, 6, 7, 8, 9, 10, 11, 12, 13]
		},
		{
			"name": "Barrel",
			"origin": [8, 8, 8],
			"children": [14, 15, 16, 17, 18, 19, 20, 21, 22, 23, 24, 25, 26, 27, 28, 29, 30, 31, 32, 33, 34, 35, 36, 37, 38, 39, 40, 41, 42, 43, 44, 45, 46, 47, 48, 49, 50, 51, 52, 53, 54]
		}
	]
}