{
	"credit": "Made with Blockbench",
	"texture_size": [128, 128],
	"textures": {
		"0": "tardis:item/intersitial_antenna",
		"particle": "tardis:item/intersitial_antenna"
	},
	"elements": [
		{
			"name": "hexadecagon",
			"from": [7.36985, 7.298, 4.832],
			"to": [8.63015, 9.242, 11.168],
			"rotation": {"angle": -45, "axis": "y", "origin": [8, 8, 8]},
			"faces": {
				"north": {"uv": [9.125, 5.625, 9.25, 5.75], "texture": "#0"},
				"east": {"uv": [8.375, 5.625, 9.125, 5.75], "texture": "#0"},
				"south": {"uv": [10, 5.625, 10.125, 5.75], "texture": "#0"},
				"west": {"uv": [9.25, 5.625, 10, 5.75], "texture": "#0"},
				"up": {"uv": [9.25, 5.625, 9.125, 4.875], "texture": "#0"},
				"down": {"uv": [9.375, 4.875, 9.25, 5.625], "texture": "#0"}
			}
		},
		{
			"name": "hexadecagon",
			"from": [7.36985, 7.298, 4.832],
			"to": [8.63015, 9.242, 11.168],
			"rotation": {"angle": -22.5, "axis": "y", "origin": [8, 8, 8]},
			"faces": {
				"north": {"uv": [9.125, 3.125, 9.25, 3.25], "texture": "#0"},
				"east": {"uv": [8.375, 3.125, 9.125, 3.25], "texture": "#0"},
				"south": {"uv": [10, 3.125, 10.125, 3.25], "texture": "#0"},
				"west": {"uv": [9.25, 3.125, 10, 3.25], "texture": "#0"},
				"up": {"uv": [9.25, 3.125, 9.125, 2.375], "texture": "#0"},
				"down": {"uv": [9.375, 2.375, 9.25, 3.125], "texture": "#0"}
			}
		},
		{
			"name": "hexadecagon",
			"from": [7.36985, 7.298, 4.832],
			"to": [8.63015, 9.242, 11.168],
			"faces": {
				"north": {"uv": [9.125, 0.75, 9.25, 0.875], "texture": "#0"},
				"east": {"uv": [8.375, 0.75, 9.125, 0.875], "texture": "#0"},
				"south": {"uv": [10, 0.75, 10.125, 0.875], "texture": "#0"},
				"west": {"uv": [9.25, 0.75, 10, 0.875], "texture": "#0"},
				"up": {"uv": [9.25, 0.75, 9.125, 0], "texture": "#0"},
				"down": {"uv": [9.375, 0, 9.25, 0.75], "texture": "#0"}
			}
		},
		{
			"name": "hexadecagon",
			"from": [7.36985, 7.298, 4.832],
			"to": [8.63015, 9.242, 11.168],
			"rotation": {"angle": 22.5, "axis": "y", "origin": [8, 8, 8]},
			"faces": {
				"north": {"uv": [3.5, 9.125, 3.625, 9.25], "texture": "#0"},
				"east": {"uv": [2.75, 9.125, 3.5, 9.25], "texture": "#0"},
				"south": {"uv": [4.375, 9.125, 4.5, 9.25], "texture": "#0"},
				"west": {"uv": [3.625, 9.125, 4.375, 9.25], "texture": "#0"},
				"up": {"uv": [3.625, 9.125, 3.5, 8.375], "texture": "#0"},
				"down": {"uv": [3.75, 8.375, 3.625, 9.125], "texture": "#0"}
			}
		},
		{
			"name": "hexadecagon",
			"from": [7.36985, 7.298, 4.832],
			"to": [8.63015, 9.242, 11.168],
			"rotation": {"angle": 45, "axis": "y", "origin": [8, 8, 8]},
			"faces": {
				"north": {"uv": [7, 9, 7.125, 9.125], "texture": "#0"},
				"east": {"uv": [6.25, 9, 7, 9.125], "texture": "#0"},
				"south": {"uv": [7.875, 9, 8, 9.125], "texture": "#0"},
				"west": {"uv": [7.125, 9, 7.875, 9.125], "texture": "#0"},
				"up": {"uv": [7.125, 9, 7, 8.25], "texture": "#0"},
				"down": {"uv": [7.25, 8.25, 7.125, 9], "texture": "#0"}
			}
		},
		{
			"name": "hexadecagon",
			"from": [4.832, 7.298, 7.36985],
			"to": [11.168, 9.242, 8.63015],
			"rotation": {"angle": -22.5, "axis": "y", "origin": [8, 8, 8]},
			"faces": {
				"north": {"uv": [2.875, 7.125, 3.625, 7.25], "texture": "#0"},
				"east": {"uv": [2.75, 7.125, 2.875, 7.25], "texture": "#0"},
				"south": {"uv": [3.75, 7.125, 4.5, 7.25], "texture": "#0"},
				"west": {"uv": [3.625, 7.125, 3.75, 7.25], "texture": "#0"},
				"up": {"uv": [3.625, 7.125, 2.875, 7], "texture": "#0"},
				"down": {"uv": [4.375, 7, 3.625, 7.125], "texture": "#0"}
			}
		},
		{
			"name": "hexadecagon",
			"from": [4.832, 7.298, 7.36985],
			"to": [11.168, 9.242, 8.63015],
			"faces": {
				"north": {"uv": [6.375, 5.75, 7.125, 5.875], "texture": "#0"},
				"east": {"uv": [6.25, 5.75, 6.375, 5.875], "texture": "#0"},
				"south": {"uv": [7.25, 5.75, 8, 5.875], "texture": "#0"},
				"west": {"uv": [7.125, 5.75, 7.25, 5.875], "texture": "#0"},
				"up": {"uv": [7.125, 5.75, 6.375, 5.625], "texture": "#0"},
				"down": {"uv": [7.875, 5.625, 7.125, 5.75], "texture": "#0"}
			}
		},
		{
			"name": "hexadecagon",
			"from": [4.832, 7.298, 7.36985],
			"to": [11.168, 9.242, 8.63015],
			"rotation": {"angle": 22.5, "axis": "y", "origin": [8, 8, 8]},
			"faces": {
				"north": {"uv": [3.875, 2.625, 4.625, 2.75], "texture": "#0"},
				"east": {"uv": [3.75, 2.625, 3.875, 2.75], "texture": "#0"},
				"south": {"uv": [4.75, 2.625, 5.5, 2.75], "texture": "#0"},
				"west": {"uv": [4.625, 2.625, 4.75, 2.75], "texture": "#0"},
				"up": {"uv": [4.625, 2.625, 3.875, 2.5], "texture": "#0"},
				"down": {"uv": [5.375, 2.5, 4.625, 2.625], "texture": "#0"}
			}
		},
		{
			"name": "hexadecagon",
			"from": [7.20435, 1.25, 4],
			"to": [8.79565, 6.25, 12],
			"rotation": {"angle": -45, "axis": "y", "origin": [8, 8, 8]},
			"faces": {
				"north": {"uv": [3.5, 5.375, 3.625, 6], "texture": "#0"},
				"east": {"uv": [2.5, 5.375, 3.5, 6], "texture": "#0"},
				"south": {"uv": [4.625, 5.375, 4.75, 6], "texture": "#0"},
				"west": {"uv": [3.625, 5.375, 4.625, 6], "texture": "#0"},
				"up": {"uv": [3.625, 5.375, 3.5, 4.375], "texture": "#0"},
				"down": {"uv": [3.75, 4.375, 3.625, 5.375], "texture": "#0"}
			}
		},
		{
			"name": "hexadecagon",
			"from": [7.20435, 1.25, 4],
			"to": [8.79565, 6.25, 12],
			"rotation": {"angle": -22.5, "axis": "y", "origin": [8, 8, 8]},
			"faces": {
				"north": {"uv": [4.75, 1.625, 4.875, 2.25], "texture": "#0"},
				"east": {"uv": [3.75, 1.625, 4.75, 2.25], "texture": "#0"},
				"south": {"uv": [5.875, 1.625, 6, 2.25], "texture": "#0"},
				"west": {"uv": [4.875, 1.625, 5.875, 2.25], "texture": "#0"},
				"up": {"uv": [4.875, 1.625, 4.75, 0.625], "texture": "#0"},
				"down": {"uv": [5, 0.625, 4.875, 1.625], "texture": "#0"}
			}
		},
		{
			"name": "hexadecagon",
			"from": [7.20435, 1.25, 4],
			"to": [8.79565, 6.25, 12],
			"faces": {
				"north": {"uv": [4.75, 4.75, 4.875, 5.375], "texture": "#0"},
				"east": {"uv": [3.75, 4.75, 4.75, 5.375], "texture": "#0"},
				"south": {"uv": [5.875, 4.75, 6, 5.375], "texture": "#0"},
				"west": {"uv": [4.875, 4.75, 5.875, 5.375], "texture": "#0"},
				"up": {"uv": [4.875, 4.75, 4.75, 3.75], "texture": "#0"},
				"down": {"uv": [5, 3.75, 4.875, 4.75], "texture": "#0"}
			}
		},
		{
			"name": "hexadecagon",
			"from": [7.20435, 1.25, 4],
			"to": [8.79565, 6.25, 12],
			"rotation": {"angle": 22.5, "axis": "y", "origin": [8, 8, 8]},
			"faces": {
				"north": {"uv": [1, 4.75, 1.125, 5.375], "texture": "#0"},
				"east": {"uv": [0, 4.75, 1, 5.375], "texture": "#0"},
				"south": {"uv": [2.125, 4.75, 2.25, 5.375], "texture": "#0"},
				"west": {"uv": [1.125, 4.75, 2.125, 5.375], "texture": "#0"},
				"up": {"uv": [1.125, 4.75, 1, 3.75], "texture": "#0"},
				"down": {"uv": [1.25, 3.75, 1.125, 4.75], "texture": "#0"}
			}
		},
		{
			"name": "hexadecagon",
			"from": [7.20435, 1.25, 4],
			"to": [8.79565, 6.25, 12],
			"rotation": {"angle": 45, "axis": "y", "origin": [8, 8, 8]},
			"faces": {
				"north": {"uv": [2.25, 4.125, 2.375, 4.75], "texture": "#0"},
				"east": {"uv": [1.25, 4.125, 2.25, 4.75], "texture": "#0"},
				"south": {"uv": [3.375, 4.125, 3.5, 4.75], "texture": "#0"},
				"west": {"uv": [2.375, 4.125, 3.375, 4.75], "texture": "#0"},
				"up": {"uv": [2.375, 4.125, 2.25, 3.125], "texture": "#0"},
				"down": {"uv": [2.5, 3.125, 2.375, 4.125], "texture": "#0"}
			}
		},
		{
			"name": "hexadecagon",
			"from": [4, 1.25, 7.20435],
			"to": [12, 6.25, 8.79565],
			"rotation": {"angle": -22.5, "axis": "y", "origin": [8, 8, 8]},
			"faces": {
				"north": {"uv": [8.125, 1.125, 9.125, 1.75], "texture": "#0"},
				"east": {"uv": [8, 1.125, 8.125, 1.75], "texture": "#0"},
				"south": {"uv": [9.25, 1.125, 10.25, 1.75], "texture": "#0"},
				"west": {"uv": [9.125, 1.125, 9.25, 1.75], "texture": "#0"},
				"up": {"uv": [9.125, 1.125, 8.125, 1], "texture": "#0"},
				"down": {"uv": [10.125, 1, 9.125, 1.125], "texture": "#0"}
			}
		},
		{
			"name": "hexadecagon",
			"from": [4, 1.25, 7.20435],
			"to": [12, 6.25, 8.79565],
			"faces": {
				"north": {"uv": [8, 8, 9, 8.625], "texture": "#0"},
				"east": {"uv": [7.875, 8, 8, 8.625], "texture": "#0"},
				"south": {"uv": [9.125, 8, 10.125, 8.625], "texture": "#0"},
				"west": {"uv": [9, 8, 9.125, 8.625], "texture": "#0"},
				"up": {"uv": [9, 8, 8, 7.875], "texture": "#0"},
				"down": {"uv": [10, 7.875, 9, 8], "texture": "#0"}
			}
		},
		{
			"name": "hexadecagon",
			"from": [4, 1.25, 7.20435],
			"to": [12, 6.25, 8.79565],
			"rotation": {"angle": 22.5, "axis": "y", "origin": [8, 8, 8]},
			"faces": {
				"north": {"uv": [7.25, 4, 8.25, 4.625], "texture": "#0"},
				"east": {"uv": [7.125, 4, 7.25, 4.625], "texture": "#0"},
				"south": {"uv": [8.375, 4, 9.375, 4.625], "texture": "#0"},
				"west": {"uv": [8.25, 4, 8.375, 4.625], "texture": "#0"},
				"up": {"uv": [8.25, 4, 7.25, 3.875], "texture": "#0"},
				"down": {"uv": [9.25, 3.875, 8.25, 4], "texture": "#0"}
			}
		},
		{
			"name": "hexadecagon",
			"from": [7.29983, 6.22, 4.48],
			"to": [8.70017, 7.38, 11.52],
			"rotation": {"angle": -45, "axis": "y", "origin": [8, 8, 8]},
			"faces": {
				"north": {"uv": [0.875, 8.375, 1, 8.5], "texture": "#0"},
				"east": {"uv": [0, 8.375, 0.875, 8.5], "texture": "#0"},
				"south": {"uv": [1.875, 8.375, 2, 8.5], "texture": "#0"},
				"west": {"uv": [1, 8.375, 1.875, 8.5], "texture": "#0"},
				"up": {"uv": [1, 8.375, 0.875, 7.5], "texture": "#0"},
				"down": {"uv": [1.125, 7.5, 1, 8.375], "texture": "#0"}
			}
		},
		{
			"name": "hexadecagon",
			"from": [7.29983, 6.22, 4.48],
			"to": [8.70017, 7.38, 11.52],
			"rotation": {"angle": -22.5, "axis": "y", "origin": [8, 8, 8]},
			"faces": {
				"north": {"uv": [3.625, 8.25, 3.75, 8.375], "texture": "#0"},
				"east": {"uv": [2.75, 8.25, 3.625, 8.375], "texture": "#0"},
				"south": {"uv": [4.625, 8.25, 4.75, 8.375], "texture": "#0"},
				"west": {"uv": [3.75, 8.25, 4.625, 8.375], "texture": "#0"},
				"up": {"uv": [3.75, 8.25, 3.625, 7.375], "texture": "#0"},
				"down": {"uv": [3.875, 7.375, 3.75, 8.25], "texture": "#0"}
			}
		},
		{
			"name": "hexadecagon",
			"from": [7.29983, 6.22, 4.48],
			"to": [8.70017, 7.38, 11.52],
			"faces": {
				"north": {"uv": [8.125, 7.5, 8.25, 7.625], "texture": "#0"},
				"east": {"uv": [7.25, 7.5, 8.125, 7.625], "texture": "#0"},
				"south": {"uv": [9.125, 7.5, 9.25, 7.625], "texture": "#0"},
				"west": {"uv": [8.25, 7.5, 9.125, 7.625], "texture": "#0"},
				"up": {"uv": [8.25, 7.5, 8.125, 6.625], "texture": "#0"},
				"down": {"uv": [8.375, 6.625, 8.25, 7.5], "texture": "#0"}
			}
		},
		{
			"name": "hexadecagon",
			"from": [7.29983, 6.22, 4.48],
			"to": [8.70017, 7.38, 11.52],
			"rotation": {"angle": 22.5, "axis": "y", "origin": [8, 8, 8]},
			"faces": {
				"north": {"uv": [8.125, 6.5, 8.25, 6.625], "texture": "#0"},
				"east": {"uv": [7.25, 6.5, 8.125, 6.625], "texture": "#0"},
				"south": {"uv": [9.125, 6.5, 9.25, 6.625], "texture": "#0"},
				"west": {"uv": [8.25, 6.5, 9.125, 6.625], "texture": "#0"},
				"up": {"uv": [8.25, 6.5, 8.125, 5.625], "texture": "#0"},
				"down": {"uv": [8.375, 5.625, 8.25, 6.5], "texture": "#0"}
			}
		},
		{
			"name": "hexadecagon",
			"from": [7.29983, 6.22, 4.48],
			"to": [8.70017, 7.38, 11.52],
			"rotation": {"angle": 45, "axis": "y", "origin": [8, 8, 8]},
			"faces": {
				"north": {"uv": [8.125, 0.875, 8.25, 1], "texture": "#0"},
				"east": {"uv": [7.25, 0.875, 8.125, 1], "texture": "#0"},
				"south": {"uv": [9.125, 0.875, 9.25, 1], "texture": "#0"},
				"west": {"uv": [8.25, 0.875, 9.125, 1], "texture": "#0"},
				"up": {"uv": [8.25, 0.875, 8.125, 0], "texture": "#0"},
				"down": {"uv": [8.375, 0, 8.25, 0.875], "texture": "#0"}
			}
		},
		{
			"name": "hexadecagon",
			"from": [4.48, 6.22, 7.29983],
			"to": [11.52, 7.38, 8.70017],
			"rotation": {"angle": -22.5, "axis": "y", "origin": [8, 8, 8]},
			"faces": {
				"north": {"uv": [8.5, 6.125, 9.375, 6.25], "texture": "#0"},
				"east": {"uv": [8.375, 6.125, 8.5, 6.25], "texture": "#0"},
				"south": {"uv": [9.5, 6.125, 10.375, 6.25], "texture": "#0"},
				"west": {"uv": [9.375, 6.125, 9.5, 6.25], "texture": "#0"},
				"up": {"uv": [9.375, 6.125, 8.5, 6], "texture": "#0"},
				"down": {"uv": [10.25, 6, 9.375, 6.125], "texture": "#0"}
			}
		},
		{
			"name": "hexadecagon",
			"from": [4.48, 6.22, 7.29983],
			"to": [11.52, 7.38, 8.70017],
			"faces": {
				"north": {"uv": [8.5, 5.875, 9.375, 6], "texture": "#0"},
				"east": {"uv": [8.375, 5.875, 8.5, 6], "texture": "#0"},
				"south": {"uv": [9.5, 5.875, 10.375, 6], "texture": "#0"},
				"west": {"uv": [9.375, 5.875, 9.5, 6], "texture": "#0"},
				"up": {"uv": [9.375, 5.875, 8.5, 5.75], "texture": "#0"},
				"down": {"uv": [10.25, 5.75, 9.375, 5.875], "texture": "#0"}
			}
		},
		{
			"name": "hexadecagon",
			"from": [4.48, 6.22, 7.29983],
			"to": [11.52, 7.38, 8.70017],
			"rotation": {"angle": 22.5, "axis": "y", "origin": [8, 8, 8]},
			"faces": {
				"north": {"uv": [8.125, 4.75, 9, 4.875], "texture": "#0"},
				"east": {"uv": [8, 4.75, 8.125, 4.875], "texture": "#0"},
				"south": {"uv": [9.125, 4.75, 10, 4.875], "texture": "#0"},
				"west": {"uv": [9, 4.75, 9.125, 4.875], "texture": "#0"},
				"up": {"uv": [9, 4.75, 8.125, 4.625], "texture": "#0"},
				"down": {"uv": [9.875, 4.625, 9, 4.75], "texture": "#0"}
			}
		},
		{
			"name": "hexadecagon",
			"from": [7.29983, 0.22, 4.48],
			"to": [8.70017, 1.38, 11.52],
			"rotation": {"angle": -45, "axis": "y", "origin": [8, 8, 8]},
			"faces": {
				"north": {"uv": [6.75, 8.125, 6.875, 8.25], "texture": "#0"},
				"east": {"uv": [5.875, 8.125, 6.75, 8.25], "texture": "#0"},
				"south": {"uv": [7.75, 8.125, 7.875, 8.25], "texture": "#0"},
				"west": {"uv": [6.875, 8.125, 7.75, 8.25], "texture": "#0"},
				"up": {"uv": [6.875, 8.125, 6.75, 7.25], "texture": "#0"},
				"down": {"uv": [7, 7.25, 6.875, 8.125], "texture": "#0"}
			}
		},
		{
			"name": "hexadecagon",
			"from": [7.29983, 0.22, 4.48],
			"to": [8.70017, 1.38, 11.52],
			"rotation": {"angle": -22.5, "axis": "y", "origin": [8, 8, 8]},
			"faces": {
				"north": {"uv": [5.625, 8, 5.75, 8.125], "texture": "#0"},
				"east": {"uv": [4.75, 8, 5.625, 8.125], "texture": "#0"},
				"south": {"uv": [6.625, 8, 6.75, 8.125], "texture": "#0"},
				"west": {"uv": [5.75, 8, 6.625, 8.125], "texture": "#0"},
				"up": {"uv": [5.75, 8, 5.625, 7.125], "texture": "#0"},
				"down": {"uv": [5.875, 7.125, 5.75, 8], "texture": "#0"}
			}
		},
		{
			"name": "hexadecagon",
			"from": [7.29983, 0.22, 4.48],
			"to": [8.70017, 1.38, 11.52],
			"faces": {
				"north": {"uv": [2.5, 7.875, 2.625, 8], "texture": "#0"},
				"east": {"uv": [1.625, 7.875, 2.5, 8], "texture": "#0"},
				"south": {"uv": [3.5, 7.875, 3.625, 8], "texture": "#0"},
				"west": {"uv": [2.625, 7.875, 3.5, 8], "texture": "#0"},
				"up": {"uv": [2.625, 7.875, 2.5, 7], "texture": "#0"},
				"down": {"uv": [2.75, 7, 2.625, 7.875], "texture": "#0"}
			}
		},
		{
			"name": "hexadecagon",
			"from": [7.29983, 0.22, 4.48],
			"to": [8.70017, 1.38, 11.52],
			"rotation": {"angle": 22.5, "axis": "y", "origin": [8, 8, 8]},
			"faces": {
				"north": {"uv": [7.75, 2, 7.875, 2.125], "texture": "#0"},
				"east": {"uv": [6.875, 2, 7.75, 2.125], "texture": "#0"},
				"south": {"uv": [8.75, 2, 8.875, 2.125], "texture": "#0"},
				"west": {"uv": [7.875, 2, 8.75, 2.125], "texture": "#0"},
				"up": {"uv": [7.875, 2, 7.75, 1.125], "texture": "#0"},
				"down": {"uv": [8, 1.125, 7.875, 2], "texture": "#0"}
			}
		},
		{
			"name": "hexadecagon",
			"from": [7.29983, 0.22, 4.48],
			"to": [8.70017, 1.38, 11.52],
			"rotation": {"angle": 45, "axis": "y", "origin": [8, 8, 8]},
			"faces": {
				"north": {"uv": [4.5, 7.25, 4.625, 7.375], "texture": "#0"},
				"east": {"uv": [3.625, 7.25, 4.5, 7.375], "texture": "#0"},
				"south": {"uv": [5.5, 7.25, 5.625, 7.375], "texture": "#0"},
				"west": {"uv": [4.625, 7.25, 5.5, 7.375], "texture": "#0"},
				"up": {"uv": [4.625, 7.25, 4.5, 6.375], "texture": "#0"},
				"down": {"uv": [4.75, 6.375, 4.625, 7.25], "texture": "#0"}
			}
		},
		{
			"name": "hexadecagon",
			"from": [4.48, 0.22, 7.29983],
			"to": [11.52, 1.38, 8.70017],
			"rotation": {"angle": -22.5, "axis": "y", "origin": [8, 8, 8]},
			"faces": {
				"north": {"uv": [8.125, 1.875, 9, 2], "texture": "#0"},
				"east": {"uv": [8, 1.875, 8.125, 2], "texture": "#0"},
				"south": {"uv": [9.125, 1.875, 10, 2], "texture": "#0"},
				"west": {"uv": [9, 1.875, 9.125, 2], "texture": "#0"},
				"up": {"uv": [9, 1.875, 8.125, 1.75], "texture": "#0"},
				"down": {"uv": [9.875, 1.75, 9, 1.875], "texture": "#0"}
			}
		},
		{
			"name": "hexadecagon",
			"from": [4.48, 0.22, 7.29983],
			"to": [11.52, 1.38, 8.70017],
			"faces": {
				"north": {"uv": [7.875, 2.25, 8.75, 2.375], "texture": "#0"},
				"east": {"uv": [7.75, 2.25, 7.875, 2.375], "texture": "#0"},
				"south": {"uv": [8.875, 2.25, 9.75, 2.375], "texture": "#0"},
				"west": {"uv": [8.75, 2.25, 8.875, 2.375], "texture": "#0"},
				"up": {"uv": [8.75, 2.25, 7.875, 2.125], "texture": "#0"},
				"down": {"uv": [9.625, 2.125, 8.75, 2.25], "texture": "#0"}
			}
		},
		{
			"name": "hexadecagon",
			"from": [4.48, 0.22, 7.29983],
			"to": [11.52, 1.38, 8.70017],
			"rotation": {"angle": 22.5, "axis": "y", "origin": [8, 8, 8]},
			"faces": {
				"north": {"uv": [7.125, 7.75, 8, 7.875], "texture": "#0"},
				"east": {"uv": [7, 7.75, 7.125, 7.875], "texture": "#0"},
				"south": {"uv": [8.125, 7.75, 9, 7.875], "texture": "#0"},
				"west": {"uv": [8, 7.75, 8.125, 7.875], "texture": "#0"},
				"up": {"uv": [8, 7.75, 7.125, 7.625], "texture": "#0"},
				"down": {"uv": [8.875, 7.625, 8, 7.75], "texture": "#0"}
			}
		},
		{
			"name": "hexadecagon",
			"from": [7.20435, 9.75, 4],
			"to": [8.79565, 14.75, 12],
			"rotation": {"angle": -45, "axis": "y", "origin": [8, 8, 8]},
			"faces": {
				"north": {"uv": [3.5, 1, 3.625, 1.625], "texture": "#0"},
				"east": {"uv": [2.5, 1, 3.5, 1.625], "texture": "#0"},
				"south": {"uv": [4.625, 1, 4.75, 1.625], "texture": "#0"},
				"west": {"uv": [3.625, 1, 4.625, 1.625], "texture": "#0"},
				"up": {"uv": [3.625, 1, 3.5, 0], "texture": "#0"},
				"down": {"uv": [3.75, 0, 3.625, 1], "texture": "#0"}
			}
		},
		{
			"name": "hexadecagon",
			"from": [7.20435, 9.75, 4],
			"to": [8.79565, 14.75, 12],
			"rotation": {"angle": -22.5, "axis": "y", "origin": [8, 8, 8]},
			"faces": {
				"north": {"uv": [3.5, 3.5, 3.625, 4.125], "texture": "#0"},
				"east": {"uv": [2.5, 3.5, 3.5, 4.125], "texture": "#0"},
				"south": {"uv": [4.625, 3.5, 4.75, 4.125], "texture": "#0"},
				"west": {"uv": [3.625, 3.5, 4.625, 4.125], "texture": "#0"},
				"up": {"uv": [3.625, 3.5, 3.5, 2.5], "texture": "#0"},
				"down": {"uv": [3.75, 2.5, 3.625, 3.5], "texture": "#0"}
			}
		},
		{
			"name": "hexadecagon",
			"from": [7.20435, 9.75, 4],
			"to": [8.79565, 14.75, 12],
			"faces": {
				"north": {"uv": [1, 2.875, 1.125, 3.5], "texture": "#0"},
				"east": {"uv": [0, 2.875, 1, 3.5], "texture": "#0"},
				"south": {"uv": [2.125, 2.875, 2.25, 3.5], "texture": "#0"},
				"west": {"uv": [1.125, 2.875, 2.125, 3.5], "texture": "#0"},
				"up": {"uv": [1.125, 2.875, 1, 1.875], "texture": "#0"},
				"down": {"uv": [1.25, 1.875, 1.125, 2.875], "texture": "#0"}
			}
		},
		{
			"name": "hexadecagon",
			"from": [7.20435, 9.75, 4],
			"to": [8.79565, 14.75, 12],
			"rotation": {"angle": 22.5, "axis": "y", "origin": [8, 8, 8]},
			"faces": {
				"north": {"uv": [2.25, 2.25, 2.375, 2.875], "texture": "#0"},
				"east": {"uv": [1.25, 2.25, 2.25, 2.875], "texture": "#0"},
				"south": {"uv": [3.375, 2.25, 3.5, 2.875], "texture": "#0"},
				"west": {"uv": [2.375, 2.25, 3.375, 2.875], "texture": "#0"},
				"up": {"uv": [2.375, 2.25, 2.25, 1.25], "texture": "#0"},
				"down": {"uv": [2.5, 1.25, 2.375, 2.25], "texture": "#0"}
			}
		},
		{
			"name": "hexadecagon",
			"from": [7.20435, 9.75, 4],
			"to": [8.79565, 14.75, 12],
			"rotation": {"angle": 45, "axis": "y", "origin": [8, 8, 8]},
			"faces": {
				"north": {"uv": [1, 1, 1.125, 1.625], "texture": "#0"},
				"east": {"uv": [0, 1, 1, 1.625], "texture": "#0"},
				"south": {"uv": [2.125, 1, 2.25, 1.625], "texture": "#0"},
				"west": {"uv": [1.125, 1, 2.125, 1.625], "texture": "#0"},
				"up": {"uv": [1.125, 1, 1, 0], "texture": "#0"},
				"down": {"uv": [1.25, 0, 1.125, 1], "texture": "#0"}
			}
		},
		{
			"name": "hexadecagon",
			"from": [4, 9.75, 7.20435],
			"to": [12, 14.75, 8.79565],
			"rotation": {"angle": -22.5, "axis": "y", "origin": [8, 8, 8]},
			"faces": {
				"north": {"uv": [6.375, 5, 7.375, 5.625], "texture": "#0"},
				"east": {"uv": [6.25, 5, 6.375, 5.625], "texture": "#0"},
				"south": {"uv": [7.5, 5, 8.5, 5.625], "texture": "#0"},
				"west": {"uv": [7.375, 5, 7.5, 5.625], "texture": "#0"},
				"up": {"uv": [7.375, 5, 6.375, 4.875], "texture": "#0"},
				"down": {"uv": [8.375, 4.875, 7.375, 5], "texture": "#0"}
			}
		},
		{
			"name": "hexadecagon",
			"from": [4, 9.75, 7.20435],
			"to": [12, 14.75, 8.79565],
			"faces": {
				"north": {"uv": [6.375, 3.25, 7.375, 3.875], "texture": "#0"},
				"east": {"uv": [6.25, 3.25, 6.375, 3.875], "texture": "#0"},
				"south": {"uv": [7.5, 3.25, 8.5, 3.875], "texture": "#0"},
				"west": {"uv": [7.375, 3.25, 7.5, 3.875], "texture": "#0"},
				"up": {"uv": [7.375, 3.25, 6.375, 3.125], "texture": "#0"},
				"down": {"uv": [8.375, 3.125, 7.375, 3.25], "texture": "#0"}
			}
		},
		{
			"name": "hexadecagon",
			"from": [4, 9.75, 7.20435],
			"to": [12, 14.75, 8.79565],
			"rotation": {"angle": 22.5, "axis": "y", "origin": [8, 8, 8]},
			"faces": {
				"north": {"uv": [6.375, 2.5, 7.375, 3.125], "texture": "#0"},
				"east": {"uv": [6.25, 2.5, 6.375, 3.125], "texture": "#0"},
				"south": {"uv": [7.5, 2.5, 8.5, 3.125], "texture": "#0"},
				"west": {"uv": [7.375, 2.5, 7.5, 3.125], "texture": "#0"},
				"up": {"uv": [7.375, 2.5, 6.375, 2.375], "texture": "#0"},
				"down": {"uv": [8.375, 2.375, 7.375, 2.5], "texture": "#0"}
			}
		},
		{
			"name": "hexadecagon",
			"from": [7.29983, 14.72, 4.48],
			"to": [8.70017, 15.88, 11.52],
			"rotation": {"angle": -45, "axis": "y", "origin": [8, 8, 8]},
			"faces": {
				"north": {"uv": [7, 7.125, 7.125, 7.25], "texture": "#0"},
				"east": {"uv": [6.125, 7.125, 7, 7.25], "texture": "#0"},
				"south": {"uv": [8, 7.125, 8.125, 7.25], "texture": "#0"},
				"west": {"uv": [7.125, 7.125, 8, 7.25], "texture": "#0"},
				"up": {"uv": [7.125, 7.125, 7, 6.25], "texture": "#0"},
				"down": {"uv": [7.25, 6.25, 7.125, 7.125], "texture": "#0"}
			}
		},
		{
			"name": "hexadecagon",
			"from": [7.29983, 14.72, 4.48],
			"to": [8.70017, 15.88, 11.52],
			"rotation": {"angle": -22.5, "axis": "y", "origin": [8, 8, 8]},
			"faces": {
				"north": {"uv": [7, 1, 7.125, 1.125], "texture": "#0"},
				"east": {"uv": [6.125, 1, 7, 1.125], "texture": "#0"},
				"south": {"uv": [8, 1, 8.125, 1.125], "texture": "#0"},
				"west": {"uv": [7.125, 1, 8, 1.125], "texture": "#0"},
				"up": {"uv": [7.125, 1, 7, 0.125], "texture": "#0"},
				"down": {"uv": [7.25, 0.125, 7.125, 1], "texture": "#0"}
			}
		},
		{
			"name": "hexadecagon",
			"from": [7.29983, 14.72, 4.48],
			"to": [8.70017, 15.88, 11.52],
			"faces": {
				"north": {"uv": [5.875, 7, 6, 7.125], "texture": "#0"},
				"east": {"uv": [5, 7, 5.875, 7.125], "texture": "#0"},
				"south": {"uv": [6.875, 7, 7, 7.125], "texture": "#0"},
				"west": {"uv": [6, 7, 6.875, 7.125], "texture": "#0"},
				"up": {"uv": [6, 7, 5.875, 6.125], "texture": "#0"},
				"down": {"uv": [6.125, 6.125, 6, 7], "texture": "#0"}
			}
		},
		{
			"name": "hexadecagon",
			"from": [7.29983, 14.72, 4.48],
			"to": [8.70017, 15.88, 11.52],
			"rotation": {"angle": 22.5, "axis": "y", "origin": [8, 8, 8]},
			"faces": {
				"north": {"uv": [6.875, 4.75, 7, 4.875], "texture": "#0"},
				"east": {"uv": [6, 4.75, 6.875, 4.875], "texture": "#0"},
				"south": {"uv": [7.875, 4.75, 8, 4.875], "texture": "#0"},
				"west": {"uv": [7, 4.75, 7.875, 4.875], "texture": "#0"},
				"up": {"uv": [7, 4.75, 6.875, 3.875], "texture": "#0"},
				"down": {"uv": [7.125, 3.875, 7, 4.75], "texture": "#0"}
			}
		},
		{
			"name": "hexadecagon",
			"from": [7.29983, 14.72, 4.48],
			"to": [8.70017, 15.88, 11.52],
			"rotation": {"angle": 45, "axis": "y", "origin": [8, 8, 8]},
			"faces": {
				"north": {"uv": [3.375, 6.875, 3.5, 7], "texture": "#0"},
				"east": {"uv": [2.5, 6.875, 3.375, 7], "texture": "#0"},
				"south": {"uv": [4.375, 6.875, 4.5, 7], "texture": "#0"},
				"west": {"uv": [3.5, 6.875, 4.375, 7], "texture": "#0"},
				"up": {"uv": [3.5, 6.875, 3.375, 6], "texture": "#0"},
				"down": {"uv": [3.625, 6, 3.5, 6.875], "texture": "#0"}
			}
		},
		{
			"name": "hexadecagon",
			"from": [4.48, 14.72, 7.29983],
			"to": [11.52, 15.88, 8.70017],
			"rotation": {"angle": -22.5, "axis": "y", "origin": [8, 8, 8]},
			"faces": {
				"north": {"uv": [5.125, 1.25, 6, 1.375], "texture": "#0"},
				"east": {"uv": [5, 1.25, 5.125, 1.375], "texture": "#0"},
				"south": {"uv": [6.125, 1.25, 7, 1.375], "texture": "#0"},
				"west": {"uv": [6, 1.25, 6.125, 1.375], "texture": "#0"},
				"up": {"uv": [6, 1.25, 5.125, 1.125], "texture": "#0"},
				"down": {"uv": [6.875, 1.125, 6, 1.25], "texture": "#0"}
			}
		},
		{
			"name": "hexadecagon",
			"from": [4.48, 14.72, 7.29983],
			"to": [11.52, 15.88, 8.70017],
			"faces": {
				"north": {"uv": [3.875, 0.375, 4.75, 0.5], "texture": "#0"},
				"east": {"uv": [3.75, 0.375, 3.875, 0.5], "texture": "#0"},
				"south": {"uv": [4.875, 0.375, 5.75, 0.5], "texture": "#0"},
				"west": {"uv": [4.75, 0.375, 4.875, 0.5], "texture": "#0"},
				"up": {"uv": [4.75, 0.375, 3.875, 0.25], "texture": "#0"},
				"down": {"uv": [5.625, 0.25, 4.75, 0.375], "texture": "#0"}
			}
		},
		{
			"name": "hexadecagon",
			"from": [4.48, 14.72, 7.29983],
			"to": [11.52, 15.88, 8.70017],
			"rotation": {"angle": 22.5, "axis": "y", "origin": [8, 8, 8]},
			"faces": {
				"north": {"uv": [3.875, 0.125, 4.75, 0.25], "texture": "#0"},
				"east": {"uv": [3.75, 0.125, 3.875, 0.25], "texture": "#0"},
				"south": {"uv": [4.875, 0.125, 5.75, 0.25], "texture": "#0"},
				"west": {"uv": [4.75, 0.125, 4.875, 0.25], "texture": "#0"},
				"up": {"uv": [4.75, 0.125, 3.875, 0], "texture": "#0"},
				"down": {"uv": [5.625, 0, 4.75, 0.125], "texture": "#0"}
			}
		},
		{
			"name": "hexadecagon",
			"from": [7.29983, 8.72, 4.48],
			"to": [8.70017, 9.88, 11.52],
			"rotation": {"angle": -45, "axis": "y", "origin": [8, 8, 8]},
			"faces": {
				"north": {"uv": [6.625, 2.25, 6.75, 2.375], "texture": "#0"},
				"east": {"uv": [5.75, 2.25, 6.625, 2.375], "texture": "#0"},
				"south": {"uv": [7.625, 2.25, 7.75, 2.375], "texture": "#0"},
				"west": {"uv": [6.75, 2.25, 7.625, 2.375], "texture": "#0"},
				"up": {"uv": [6.75, 2.25, 6.625, 1.375], "texture": "#0"},
				"down": {"uv": [6.875, 1.375, 6.75, 2.25], "texture": "#0"}
			}
		},
		{
			"name": "hexadecagon",
			"from": [7.29983, 8.72, 4.48],
			"to": [8.70017, 9.88, 11.52],
			"rotation": {"angle": -22.5, "axis": "y", "origin": [8, 8, 8]},
			"faces": {
				"north": {"uv": [4.75, 6.25, 4.875, 6.375], "texture": "#0"},
				"east": {"uv": [3.875, 6.25, 4.75, 6.375], "texture": "#0"},
				"south": {"uv": [5.75, 6.25, 5.875, 6.375], "texture": "#0"},
				"west": {"uv": [4.875, 6.25, 5.75, 6.375], "texture": "#0"},
				"up": {"uv": [4.875, 6.25, 4.75, 5.375], "texture": "#0"},
				"down": {"uv": [5, 5.375, 4.875, 6.25], "texture": "#0"}
			}
		},
		{
			"name": "hexadecagon",
			"from": [7.29983, 8.72, 4.48],
			"to": [8.70017, 9.88, 11.52],
			"faces": {
				"north": {"uv": [6, 6, 6.125, 6.125], "texture": "#0"},
				"east": {"uv": [5.125, 6, 6, 6.125], "texture": "#0"},
				"south": {"uv": [7, 6, 7.125, 6.125], "texture": "#0"},
				"west": {"uv": [6.125, 6, 7, 6.125], "texture": "#0"},
				"up": {"uv": [6.125, 6, 6, 5.125], "texture": "#0"},
				"down": {"uv": [6.25, 5.125, 6.125, 6], "texture": "#0"}
			}
		},
		{
			"name": "hexadecagon",
			"from": [7.29983, 8.72, 4.48],
			"to": [8.70017, 9.88, 11.52],
			"rotation": {"angle": 22.5, "axis": "y", "origin": [8, 8, 8]},
			"faces": {
				"north": {"uv": [5.875, 0.875, 6, 1], "texture": "#0"},
				"east": {"uv": [5, 0.875, 5.875, 1], "texture": "#0"},
				"south": {"uv": [6.875, 0.875, 7, 1], "texture": "#0"},
				"west": {"uv": [6, 0.875, 6.875, 1], "texture": "#0"},
				"up": {"uv": [6, 0.875, 5.875, 0], "texture": "#0"},
				"down": {"uv": [6.125, 0, 6, 0.875], "texture": "#0"}
			}
		},
		{
			"name": "hexadecagon",
			"from": [7.29983, 8.72, 4.48],
			"to": [8.70017, 9.88, 11.52],
			"rotation": {"angle": 45, "axis": "y", "origin": [8, 8, 8]},
			"faces": {
				"north": {"uv": [2.125, 0.875, 2.25, 1], "texture": "#0"},
				"east": {"uv": [1.25, 0.875, 2.125, 1], "texture": "#0"},
				"south": {"uv": [3.125, 0.875, 3.25, 1], "texture": "#0"},
				"west": {"uv": [2.25, 0.875, 3.125, 1], "texture": "#0"},
				"up": {"uv": [2.25, 0.875, 2.125, 0], "texture": "#0"},
				"down": {"uv": [2.375, 0, 2.25, 0.875], "texture": "#0"}
			}
		},
		{
			"name": "hexadecagon",
			"from": [4.48, 8.72, 7.29983],
			"to": [11.52, 9.88, 8.70017],
			"rotation": {"angle": -22.5, "axis": "y", "origin": [8, 8, 8]},
			"faces": {
				"north": {"uv": [3.625, 2.375, 4.5, 2.5], "texture": "#0"},
				"east": {"uv": [3.5, 2.375, 3.625, 2.5], "texture": "#0"},
				"south": {"uv": [4.625, 2.375, 5.5, 2.5], "texture": "#0"},
				"west": {"uv": [4.5, 2.375, 4.625, 2.5], "texture": "#0"},
				"up": {"uv": [4.5, 2.375, 3.625, 2.25], "texture": "#0"},
				"down": {"uv": [5.375, 2.25, 4.5, 2.375], "texture": "#0"}
			}
		},
		{
			"name": "hexadecagon",
			"from": [4.48, 8.72, 7.29983],
			"to": [11.52, 9.88, 8.70017],
			"faces": {
				"north": {"uv": [0.125, 3.625, 1, 3.75], "texture": "#0"},
				"east": {"uv": [0, 3.625, 0.125, 3.75], "texture": "#0"},
				"south": {"uv": [1.125, 3.625, 2, 3.75], "texture": "#0"},
				"west": {"uv": [1, 3.625, 1.125, 3.75], "texture": "#0"},
				"up": {"uv": [1, 3.625, 0.125, 3.5], "texture": "#0"},
				"down": {"uv": [1.875, 3.5, 1, 3.625], "texture": "#0"}
			}
		},
		{
			"name": "hexadecagon",
			"from": [4.48, 8.72, 7.29983],
			"to": [11.52, 9.88, 8.70017],
			"rotation": {"angle": 22.5, "axis": "y", "origin": [8, 8, 8]},
			"faces": {
				"north": {"uv": [0.125, 1.75, 1, 1.875], "texture": "#0"},
				"east": {"uv": [0, 1.75, 0.125, 1.875], "texture": "#0"},
				"south": {"uv": [1.125, 1.75, 2, 1.875], "texture": "#0"},
				"west": {"uv": [1, 1.75, 1.125, 1.875], "texture": "#0"},
				"up": {"uv": [1, 1.75, 0.125, 1.625], "texture": "#0"},
				"down": {"uv": [1.875, 1.625, 1, 1.75], "texture": "#0"}
			}
		},
		{
			"from": [6, 0, 0],
			"to": [10, 16, 1],
			"faces": {
				"north": {"uv": [1.375, 5.5, 1.875, 7.5], "texture": "#0"},
				"east": {"uv": [1.25, 5.5, 1.375, 7.5], "texture": "#0"},
				"south": {"uv": [2, 5.5, 2.5, 7.5], "texture": "#0"},
				"west": {"uv": [1.875, 5.5, 2, 7.5], "texture": "#0"},
				"up": {"uv": [1.875, 5.5, 1.375, 5.375], "texture": "#0"},
				"down": {"uv": [2.375, 5.375, 1.875, 5.5], "texture": "#0"}
			}
		},
		{
			"from": [7, 1, 0.5],
			"to": [9, 15, 1.5],
			"faces": {
				"north": {"uv": [5.625, 8.375, 5.875, 10.125], "texture": "#0"},
				"east": {"uv": [5.5, 8.375, 5.625, 10.125], "texture": "#0"},
				"south": {"uv": [6, 8.375, 6.25, 10.125], "texture": "#0"},
				"west": {"uv": [5.875, 8.375, 6, 10.125], "texture": "#0"},
				"up": {"uv": [5.875, 8.375, 5.625, 8.25], "texture": "#0"},
				"down": {"uv": [6.125, 8.25, 5.875, 8.375], "texture": "#0"}
			}
		},
		{
			"from": [7.5, 11.75, 1.5],
			"to": [8.5, 12.75, 4],
			"faces": {
				"north": {"uv": [2.625, 0.25, 2.75, 0.375], "texture": "#0"},
				"east": {"uv": [2.375, 0.25, 2.625, 0.375], "texture": "#0"},
				"south": {"uv": [3, 0.25, 3.125, 0.375], "texture": "#0"},
				"west": {"uv": [2.75, 0.25, 3, 0.375], "texture": "#0"},
				"up": {"uv": [2.75, 0.25, 2.625, 0], "texture": "#0"},
				"down": {"uv": [2.875, 0, 2.75, 0.25], "texture": "#0"}
			}
		},
		{
			"from": [7.5, 3.25, 1.5],
			"to": [8.5, 4.25, 4],
			"faces": {
				"north": {"uv": [0.25, 2.5, 0.375, 2.625], "texture": "#0"},
				"east": {"uv": [0, 2.5, 0.25, 2.625], "texture": "#0"},
				"south": {"uv": [0.625, 2.5, 0.75, 2.625], "texture": "#0"},
				"west": {"uv": [0.375, 2.5, 0.625, 2.625], "texture": "#0"},
				"up": {"uv": [0.375, 2.5, 0.25, 2.25], "texture": "#0"},
				"down": {"uv": [0.5, 2.25, 0.375, 2.5], "texture": "#0"}
			}
		},
		{
			"from": [0, 0, 6],
			"to": [1, 16, 10],
			"rotation": {"angle": 22.5, "axis": "y", "origin": [8, 8, 8]},
			"faces": {
				"north": {"uv": [5.5, 2.75, 5.625, 4.75], "texture": "#0"},
				"east": {"uv": [5, 2.75, 5.5, 4.75], "texture": "#0"},
				"south": {"uv": [6.125, 2.75, 6.25, 4.75], "texture": "#0"},
				"west": {"uv": [5.625, 2.75, 6.125, 4.75], "texture": "#0"},
				"up": {"uv": [5.625, 2.75, 5.5, 2.25], "texture": "#0"},
				"down": {"uv": [5.75, 2.25, 5.625, 2.75], "texture": "#0"}
			}
		},
		{
			"from": [8.61834, 15, 7.40505],
			"to": [9.61834, 20, 8.40505],
			"rotation": {"angle": 22.5, "axis": "y", "origin": [8, 8, 8]},
			"faces": {
				"north": {"uv": [1.375, 0.125, 1.5, 0.75], "texture": "#0"},
				"east": {"uv": [1.25, 0.125, 1.375, 0.75], "texture": "#0"},
				"south": {"uv": [1.625, 0.125, 1.75, 0.75], "texture": "#0"},
				"west": {"uv": [1.5, 0.125, 1.625, 0.75], "texture": "#0"},
				"up": {"uv": [1.5, 0.125, 1.375, 0], "texture": "#0"},
				"down": {"uv": [1.625, 0, 1.5, 0.125], "texture": "#0"}
			}
		},
		{
			"from": [6.84984, 14, 7.7549],
			"to": [7.84984, 19, 8.7549],
			"rotation": {"angle": 22.5, "axis": "y", "origin": [8, 8, 8]},
			"faces": {
				"north": {"uv": [0.625, 0.125, 0.75, 0.75], "texture": "#0"},
				"east": {"uv": [0.5, 0.125, 0.625, 0.75], "texture": "#0"},
				"south": {"uv": [0.875, 0.125, 1, 0.75], "texture": "#0"},
				"west": {"uv": [0.75, 0.125, 0.875, 0.75], "texture": "#0"},
				"up": {"uv": [0.75, 0.125, 0.625, 0], "texture": "#0"},
				"down": {"uv": [0.875, 0, 0.75, 0.125], "texture": "#0"}
			}
		},
		{
			"from": [7.32819, 13, 6.60006],
			"to": [8.32819, 18, 7.60006],
			"rotation": {"angle": 22.5, "axis": "y", "origin": [8, 8, 8]},
			"faces": {
				"north": {"uv": [0.125, 0.125, 0.25, 0.75], "texture": "#0"},
				"east": {"uv": [0, 0.125, 0.125, 0.75], "texture": "#0"},
				"south": {"uv": [0.375, 0.125, 0.5, 0.75], "texture": "#0"},
				"west": {"uv": [0.25, 0.125, 0.375, 0.75], "texture": "#0"},
				"up": {"uv": [0.25, 0.125, 0.125, 0], "texture": "#0"},
				"down": {"uv": [0.375, 0, 0.25, 0.125], "texture": "#0"}
			}
		},
		{
			"from": [0.5, 1, 7],
			"to": [1.5, 15, 9],
			"rotation": {"angle": 22.5, "axis": "y", "origin": [8, 8, 8]},
			"faces": {
				"north": {"uv": [2.25, 8.25, 2.375, 10], "texture": "#0"},
				"east": {"uv": [2, 8.25, 2.25, 10], "texture": "#0"},
				"south": {"uv": [2.625, 8.25, 2.75, 10], "texture": "#0"},
				"west": {"uv": [2.375, 8.25, 2.625, 10], "texture": "#0"},
				"up": {"uv": [2.375, 8.25, 2.25, 8], "texture": "#0"},
				"down": {"uv": [2.5, 8, 2.375, 8.25], "texture": "#0"}
			}
		},
		{
			"from": [1.5, 11.75, 7.5],
			"to": [4, 12.75, 8.5],
			"rotation": {"angle": 22.5, "axis": "y", "origin": [8, 8, 8]},
			"faces": {
				"north": {"uv": [2.5, 0.5, 2.75, 0.625], "texture": "#0"},
				"east": {"uv": [2.375, 0.5, 2.5, 0.625], "texture": "#0"},
				"south": {"uv": [2.875, 0.5, 3.125, 0.625], "texture": "#0"},
				"west": {"uv": [2.75, 0.5, 2.875, 0.625], "texture": "#0"},
				"up": {"uv": [2.75, 0.5, 2.5, 0.375], "texture": "#0"},
				"down": {"uv": [3, 0.375, 2.75, 0.5], "texture": "#0"}
			}
		},
		{
			"from": [1.5, 3.25, 7.5],
			"to": [4, 4.25, 8.5],
			"rotation": {"angle": 22.5, "axis": "y", "origin": [8, 8, 8]},
			"faces": {
				"north": {"uv": [0.125, 0.875, 0.375, 1], "texture": "#0"},
				"east": {"uv": [0, 0.875, 0.125, 1], "texture": "#0"},
				"south": {"uv": [0.5, 0.875, 0.75, 1], "texture": "#0"},
				"west": {"uv": [0.375, 0.875, 0.5, 1], "texture": "#0"},
				"up": {"uv": [0.375, 0.875, 0.125, 0.75], "texture": "#0"},
				"down": {"uv": [0.625, 0.75, 0.375, 0.875], "texture": "#0"}
			}
		},
		{
			"from": [6, 0, 15],
			"to": [10, 16, 16],
			"rotation": {"angle": 45, "axis": "y", "origin": [8, 8, 8]},
			"faces": {
				"north": {"uv": [0.125, 5.5, 0.625, 7.5], "texture": "#0"},
				"east": {"uv": [0, 5.5, 0.125, 7.5], "texture": "#0"},
				"south": {"uv": [0.75, 5.5, 1.25, 7.5], "texture": "#0"},
				"west": {"uv": [0.625, 5.5, 0.75, 7.5], "texture": "#0"},
				"up": {"uv": [0.625, 5.5, 0.125, 5.375], "texture": "#0"},
				"down": {"uv": [1.125, 5.375, 0.625, 5.5], "texture": "#0"}
			}
		},
		{
			"from": [7, 1, 14.5],
			"to": [9, 15, 15.5],
			"rotation": {"angle": 45, "axis": "y", "origin": [8, 8, 8]},
			"faces": {
				"north": {"uv": [4.875, 8.25, 5.125, 10], "texture": "#0"},
				"east": {"uv": [4.75, 8.25, 4.875, 10], "texture": "#0"},
				"south": {"uv": [5.25, 8.25, 5.5, 10], "texture": "#0"},
				"west": {"uv": [5.125, 8.25, 5.25, 10], "texture": "#0"},
				"up": {"uv": [5.125, 8.25, 4.875, 8.125], "texture": "#0"},
				"down": {"uv": [5.375, 8.125, 5.125, 8.25], "texture": "#0"}
			}
		},
		{
			"from": [7.5, 11.75, 12],
			"to": [8.5, 12.75, 14.5],
			"rotation": {"angle": 45, "axis": "y", "origin": [8, 8, 8]},
			"faces": {
				"north": {"uv": [1.5, 2.125, 1.625, 2.25], "texture": "#0"},
				"east": {"uv": [1.25, 2.125, 1.5, 2.25], "texture": "#0"},
				"south": {"uv": [1.875, 2.125, 2, 2.25], "texture": "#0"},
				"west": {"uv": [1.625, 2.125, 1.875, 2.25], "texture": "#0"},
				"up": {"uv": [1.625, 2.125, 1.5, 1.875], "texture": "#0"},
				"down": {"uv": [1.75, 1.875, 1.625, 2.125], "texture": "#0"}
			}
		},
		{
			"from": [7.5, 3.21875, 12],
			"to": [8.5, 4.21875, 14.5],
			"rotation": {"angle": 45, "axis": "y", "origin": [8, 8, 8]},
			"faces": {
				"north": {"uv": [0.25, 2.125, 0.375, 2.25], "texture": "#0"},
				"east": {"uv": [0, 2.125, 0.25, 2.25], "texture": "#0"},
				"south": {"uv": [0.625, 2.125, 0.75, 2.25], "texture": "#0"},
				"west": {"uv": [0.375, 2.125, 0.625, 2.25], "texture": "#0"},
				"up": {"uv": [0.375, 2.125, 0.25, 1.875], "texture": "#0"},
				"down": {"uv": [0.5, 1.875, 0.375, 2.125], "texture": "#0"}
			}
		}
	],
	"display": {
		"thirdperson_righthand": {
			"rotation": [0, 12, 0],
			"translation": [0, 0, -1],
			"scale": [0.5, 0.5, 0.5]
		},
		"thirdperson_lefthand": {
			"rotation": [0, -12, 0],
			"translation": [0, 0, -1],
			"scale": [0.5, 0.5, 0.5]
		},
		"firstperson_righthand": {
			"rotation": [0, 0, 30],
			"translation": [0, 1.5, 0],
			"scale": [0.5, 0.5, 0.5]
		},
		"firstperson_lefthand": {
			"rotation": [0, 0, 30],
			"translation": [0, 1.5, 0],
			"scale": [0.5, 0.5, 0.5]
		},
		"ground": {
			"rotation": [90, 66, 0],
			"translation": [0, 0.25, 0],
			"scale": [0.25, 0.25, 0.25]
		},
		"gui": {
			"rotation": [30, 225, 0],
			"scale": [0.625, 0.625, 0.625]
		},
		"head": {
			"translation": [0, 10.25, 0],
			"scale": [0.5, 0.5, 0.5]
		},
		"fixed": {
			"rotation": [-180, 10, 0]
		}
	},
	"groups": [
		{
			"name": "hexadecagon",
			"origin": [8, 8, 8],
			"color": 0,
			"children": [0, 1, 2, 3, 4, 5, 6, 7]
		},
		{
			"name": "group",
			"origin": [8, 8, 8],
			"color": 0,
			"children": [
				{
					"name": "hexadecagon",
					"origin": [8, 8, 8],
					"color": 0,
					"children": [8, 9, 10, 11, 12, 13, 14, 15]
				},
				{
					"name": "hexadecagon",
					"origin": [8, 8, 8],
					"color": 0,
					"children": [16, 17, 18, 19, 20, 21, 22, 23]
				},
				{
					"name": "hexadecagon",
					"origin": [8, 8, 8],
					"color": 0,
					"children": [24, 25, 26, 27, 28, 29, 30, 31]
				}
			]
		},
		{
			"name": "group",
			"origin": [8, 8, 8],
			"color": 0,
			"children": [
				{
					"name": "hexadecagon",
					"origin": [8, 8, 8],
					"color": 0,
					"children": [32, 33, 34, 35, 36, 37, 38, 39]
				},
				{
					"name": "hexadecagon",
					"origin": [8, 8, 8],
					"color": 0,
					"children": [40, 41, 42, 43, 44, 45, 46, 47]
				},
				{
					"name": "hexadecagon",
					"origin": [8, 8, 8],
					"color": 0,
					"children": [48, 49, 50, 51, 52, 53, 54, 55]
				}
			]
		},
		{
			"name": "group",
			"origin": [8, 8, 8],
			"color": 0,
			"children": [56, 57, 58, 59]
		},
		{
			"name": "group",
			"origin": [8, 8, 8],
			"color": 0,
			"children": [60, 61, 62, 63, 64, 65, 66]
		},
		{
			"name": "group",
			"origin": [8, 8, 8],
			"color": 0,
			"children": [67, 68, 69, 70]
		}
	]
}