{
	"type": "tardis:quantiscope",
	"repair":true,
	"repair_item":"tardis:subsystem/temporal_grace",
	"ingredients":[
		{"item":"minecraft:iron_ingot"},
		{"item":"tardis:circuits"},
		{"item":"minecraft:gold_nugget"}
	]
}