{
	"type": "tardis:quantiscope",
	"repair":false,
	"ingredients":[
		{"item":"tardis:artron_capacitor"},
		{"item":"minecraft:iron_ingot"},
		{"item":"minecraft:glass"},
		{"item":"minecraft:redstone"}
	],
	"result":{
		"item":"tardis:roundel_tap"
	}
}