{
  "type": "normal",
  "text": "ARS Room Generation. This chapters explains the room generation system, known as the Architectural Reconfiguration System (ARS). Rooms and corridors can generated in timeships and preserved throughout interior changes. To generate corridors, the following requirements are needed: an ARS Tablet item, and a ARS Structure Start Block. Artron Energy is not required for room generation currently."
}