{
  "type": "normal",
  "text": "Turning your attention to your timeship's monitor, you'll notice a lot of helpful information for flight. When you interact with it, there is a multitude of different menus and submenus."
}