{
  "type":"normal",
  "text":"Schematics can be unlocked in many ways. One way is to use the Neutronic Spectrometer machine, which can analyze, construct and download a schematic from an item placed in the machine into a Sonic Screwdriver. Another way is to use a Sonic Screwdriver in Block Interactions Mode to scan a Ship Computer block, which may contain schematics in the form of 'data fragments'. Once a Sonic Screwdriver contains one or more Schematics, it can be placed into a timeship's Sonic Port control to process the schematic stored in the screwdriver. If the schematic unlocks a new object, the screwdriver uses up the schematic."
}